[
    { "name": "卷土", "url": "https://juantu.cn/", "tag": "Python", "sign": "现只为做成一件事", "feed": "https://juantu.cn/feed/", "status": "OK" },
    { "name": "Alen's Lofter", "url": "http://www.fanyanan.cn/", "tag": "生活,杂谈", "sign": "It's best to do one thing really, really well", "feed": "http://www.fanyanan.cn/feed/", "status": "OK" },
    { "name": "sgfox", "url": "https://www.sgfox.cc/", "tag": "C,生活", "sign": "less is more", "feed": "", "status": "OK" },
    { "name": "雨落凋殇", "url": "https://rainss.cn/", "tag": "Linux,PHP,Java,Python,Android", "sign": "聆听雨落的声音,俯看凋零的落叶.伫细雨之中,感雨落之殇", "feed": "https://rainss.cn/feed/", "status": "OK" },
    { "name": "图南山", "url": "https://tunanshan.com/", "tag": "生活,杂谈", "sign": "从前有座山，山里有座庙，庙里有个白胡子老道", "feed": "https://tunanshan.com/feed/", "status": "OK" },
    { "name": "远昔博客", "url": "http://www.blog.yuanxiblog.cn/", "sign": "技术与资源分享博客", "tag": "PHP", "feed": "http://www.blog.yuanxiblog.cn/rss.php", "status": "OK" },
    { "name": "字节星球", "url": "https://www.bytecho.net/", "tag": "Java,C++", "sign": "丰富想象力，激发创造力。", "feed": "https://www.bytecho.net/feed/", "status": "OK" },
    { "name": "Ryan Wang", "url": "https://ryanc.cc/", "tag": "Halo", "sign": "Hello Halo", "feed": "https://ryanc.cc/feed", "status": "OK" },
    { "name": "孙老四", "url": "http://lao.si/", "tag": "生活,杂谈", "sign": "记录琐事和并不多的思考", "feed": "http://lao.si/feed", "status": "OK" },
    { "name": "缃念梦幻", "url": "https://xiannian.top/", "tag": "生活,杂谈", "sign": "一小我的记载,一群人的狂欢", "feed": "https://xiannian.top/feed/", "status": "OK" },
    { "name": "我道1900的博客", "url": "http://1900.live/", "tag": "生活,节气", "sign": "你好世界，请善待所有内心善良的人", "feed": "http://1900.live/rss/", "status": "OK" },
    { "name": "Fatesinger", "url": "https://fatesinger.com/", "tag": "生活,杂谈", "sign": "This is my zine. I write about shit I care about.", "feed": "https://fatesinger.com/feed", "status": "OK" },
    { "name": "Mlldxe's Blog-犬の窝", "url": "https://mlldxe.cn/", "tag": "WordPress,建站", "sign": "A responsible Blog for WordPress", "feed": "https://mlldxe.cn/feed", "status": "OK" },
    { "name": "贰言", "url": "https://www.lshongg.cn/", "tag": "生活,杂谈", "sign": "晒出自己看到的世界,写出自己所想的细节。", "feed": "https://www.lshongg.cn/feed/", "status": "OK" },
    { "name": "两对半", "url": "https://www.liangduiban.com/", "tag": "生活,杂谈", "sign": "关注健康，记录生活，写自己感兴趣的内容", "feed": "https://www.liangduiban.com/feed.php", "status": "OK" },
    { "name": "林三随笔", "url": "https://linsanhu.com/", "tag": "生活,杂谈,网络", "sign": "记录学习与生活的点滴", "feed": "https://linsanhu.com/feed/", "status": "OK" },
    { "name": "后院笔记", "url": "https://lsbackyard.cn/", "tag": "生活", "sign": "用TiddlyWiki记录 知识 想法 计划", "feed": "", "status": "ConnectionError" },
    { "name": "雅余", "url": "https://www.yayu.net/", "tag": "生活,摄影", "sign": "茶余饭后，闲情雅致", "feed": "https://www.yayu.net/feed", "status": "OK" },
    { "name": "Fong Blog", "url": "https://fongsoul.com/", "tag": "", "sign": "", "feed": "", "status": "OK" },
    { "name": "响石潭", "url": "https://www.xiangshitan.com/", "tag": "生活", "sign": "记录一名家庭医生的成长历程", "feed": "https://www.xiangshitan.com/feed.php", "status": "OK" },
    { "name": "猫鱼的小窝", "url": "https://2cat.net/", "tag": "生活", "sign": "Welcome to Catfish's website.", "feed": "https://2cat.net/?feed=rss2", "status": "OK" },
    { "name": "拾风", "url": "https://www.coolblood.cn/", "tag": "生活,回忆", "sign": "人脑太复杂,时间过得久,记下来才是最真实的……", "feed": "https://www.coolblood.cn/?feed=rss2", "status": "OK" },
    { "name": "品味苏州", "url": "https://pwsz.com/", "tag": "生活,记事", "sign": "", "feed": "https://pwsz.com/feed", "status": "ConnectionError" },
    { "name": "王志勇的Blog", "url": "http://www.auiou.com/", "tag": "数码,音乐,生活", "sign": "", "feed": "http://www.auiou.com/feed/", "status": "OK" },
    { "name": "小众分享", "url": "https://www.smbinn.com/", "tag": "数码", "sign": "", "feed": "https://www.smbinn.com/feed", "status": "OK" },
    { "name": "迎風别葉", "url": "https://yingfeng.me/", "tag": "数码,生活,杂谈", "sign": "心明若鏡，不將不迎", "feed": "https://yingfeng.me/feed", "status": "OK" },
    { "name": "蓝卡", "url": "https://www.lanka.cn/", "tag": "生活,应用推荐,回忆,杂谈", "sign": "美好科技生活方式", "feed": "https://www.lanka.cn/feed/", "status": "OK" },
    { "name": "阮一峰的网络日志", "url": "https://www.ruanyifeng.com/blog/", "tag": "科技,数码,网络,新闻,网站推荐", "sign": "记录每周值得分享的科技内容", "feed": "https://www.ruanyifeng.com/blog/atom.xml", "status": "OK" },
    { "name": "OhYee博客", "url": "https://www.ohyee.cc/", "tag": "Go,Python,js,Linux,LeetCode,算法,杂谈", "sign": "个人向笔记性质技术分享，共产主义开源编程", "feed": "https://www.ohyee.cc/rss.xml", "status": "OK" },
    { "name": "香水的个人主页", "url": "https://xsui.com/", "tag": "生活,杂谈,手办,动漫,discuz!,wordpress", "sign": "", "feed": "", "status": "OK" },
    { "name": "启福", "url": "https://qifu.me/", "tag": "生活,杂谈,回忆", "sign": "寥寥数语，皆我心之所慨……", "feed": "https://qifu.me/feed/", "status": "OK" },
    { "name": "云帆济海", "url": "https://yunfanch.com/", "tag": "js,生活,杂谈", "sign": "一切过往，皆为序章。直挂云帆，乘风破浪。", "feed": "https://yunfanch.com/feed/", "status": "OK" },
    { "name": "杜老师说", "url": "https://dusays.com/", "tag": "杂谈,教程,游戏,群晖", "sign": "师者，传道，授业，解惑！", "feed": "https://dusays.com/atom.xml", "status": "OK" },
    { "name": "爱音乐的白", "url": "https://mubaix.github.io/", "tag": "生活", "sign": "万物皆虚，万事皆允", "feed": "", "status": "OK" },
    { "name": "EQblog", "url": "https://eqblog.com/", "tag": "Python,爬虫,wordpress,Apache,c,MySQL,前端,Nginx", "sign": "Just another WordPress site", "feed": "https://eqblog.com/feed", "status": "OK" },
    { "name": "小王子", "url": "https://www.wanghao.me/blog.html", "tag": "Python,C++,杂谈", "sign": "聆听小王子，守望成长，静待花开", "feed": "https://www.wanghao.me/feed", "status": "OK" },
    { "name": "梁龙的博客", "url": "https://www.lianglong.org/", "tag": "nginx,mac,Go,mysql,Python,Git,C,PHP,ASP", "sign": "记录生活的点点滴滴", "feed": "", "status": "OK" },
    { "name": "夜未央", "url": "https://www.savouer.com/", "tag": "生活,杂谈", "sign": "记录生活感悟、及用经济学视角解读社会", "feed": "https://www.savouer.com/feed/", "status": "ReadTimeout" },
    { "name": "无色墨水", "url": "https://wuse.ink/", "tag": "生活,杂谈", "sign": "一个人的领地", "feed": "https://wuse.ink/feed.php", "status": "OK" },
    { "name": "阿锋的小宇宙", "url": "https://feng.pub/", "tag": "生活,杂谈", "sign": "沧海一粟，微亮渺小一只虫。", "feed": "https://feng.pub/feed", "status": "OK" },
    { "name": "三无青年-段先森的个人博客", "url": "https://www.duanxiansen.com/", "tag": "生活,情感", "sign": "迄今所有人生都大写着失败,但并不妨碍我继续向前！", "feed": "https://www.duanxiansen.com/feed", "status": "OK" },
    { "name": "Vian", "url": "https://vian.top/", "tag": "生活,杂谈", "sign": "想要的都拥有，得不到的都释怀...", "feed": "https://www.vian.top/feed/", "status": "OK" },
    { "name": "俍注", "url": "https://oneinf.com/", "tag": "生活,摄影,金融", "sign": "一个金融行业互联网人的记录与分享", "feed": "https://oneinf.com/feed", "status": "OK" },
    { "name": "森木志", "url": "https://www.imxxz.cn/", "tag": "生活", "sign": "等风来，希望雨别下", "feed": "https://www.imxxz.cn/feed/", "status": "OK" },
    { "name": "友人C", "url": "https://www.ihewro.com/", "tag": "生活,杂谈,js,php,c++", "sign": "相逢的人会再相逢", "feed": "https://www.ihewro.com/feed/", "status": "OK" },
    { "name": "AoTxLand", "url": "https://aotxland.com/", "tag": "生活,杂谈,技术", "sign": "傲天翔地，记录行走和折腾之路", "feed": "https://aotxland.com/feed", "status": "ReadTimeout" },
    { "name": "尚寂新", "url": "https://shangjixin.com/", "tag": "前端,生活,Vue.js", "sign": "不为建站,只为折腾", "feed": "https://shangjixin.com/feed/", "status": "OK" },
    { "name": "心语难诉-周武杰个人博客", "url": "https://xinyu19.com/", "tag": "生活,php,杂谈", "sign": "原谅我凌乱的文字和那破碎的时光", "feed": "https://xinyu19.com/feed/", "status": "OK" },
    { "name": "俊杰", "url": "https://cjj.today/", "tag": "", "sign": "迷失在狂风暴雨后", "feed": "https://cjj.today/feed/", "status": "OK" },
    { "name": "钧言极客-进钧'Blog", "url": "https://www.jinjun.top/", "tag": "php,容器,Linux,mysql", "sign": "记录生活,爱好学习,不爱折腾.", "feed": "", "status": "OK" },
    { "name": "孙文's blog", "url": "https://www.sunjiwen.com/", "tag": "杂谈,开发", "sign": "", "feed": "https://www.sunjiwen.com/feed/", "status": "OK" },
    { "name": "小物有理", "url": "https://www.xujilong.cn/", "tag": "物理,地理", "sign": "物理让思维生活更精彩！", "feed": "https://www.xujilong.cn/feed/", "status": "OK" },
    { "name": "左岸博客", "url": "https://www.zrahh.com/", "tag": "杂谈,笔记", "sign": "关门... 放狗！-「训犬者洛克希」", "feed": "https://www.zrahh.com/feed/", "status": "OK" },
    { "name": "失眠海峡", "url": "https://blog.imalan.cn/", "tag": "生活,杂谈,硬件", "sign": "我要与你坦诚相见", "feed": "https://blog.imalan.cn/feed/", "status": "OK" },
    { "name": "陶心昊", "url": "https://taoxinhao.cn/", "tag": "生活,杂谈", "sign": "笔记与碎碎念", "feed": "https://taoxinhao.cn/feed/", "status": "ConnectionError" },
    { "name": "Rat's Blog", "url": "https://www.moerats.com/", "tag": "分享,推荐", "sign": "恰沐春风共同游，终只叹，木已舟。", "feed": "https://www.moerats.com/feed/", "status": "OK" },
    { "name": "小z博客", "url": "https://www.xiaoz.me/", "tag": "推荐,测评", "sign": "生命不息，吾将折腾不止。", "feed": "https://www.xiaoz.me/feed", "status": "OK" },
    { "name": "田珊珊个人博客", "url": "http://www.tianshan277.com/", "tag": "Vue.js,微信小程序", "sign": "连朝溪雨溢荷塘，流水倾银万叶香", "feed": "", "status": 404 },
    { "name": "Noxxxx", "url": "https://www.noxxxx.com/", "tag": "前端,Node.js,Linux", "sign": "关注前沿技术,WordPress,大前端相关资讯,写代码,聊人生的一个地方", "feed": "https://www.noxxxx.com/feed", "status": "OK" },
    { "name": "挖站否", "url": "https://wzfou.com/", "tag": "vps,分享,测评,建站", "sign": "挖掘建站的乐趣", "feed": "https://wzfou.com/feed/", "status": "OK" },
    { "name": "厘米天空", "url": "https://www.cmsky.com/", "tag": "分享", "sign": "绿色软件与IT资源分享", "feed": "https://www.cmsky.com/feed/", "status": "OK" },
    { "name": "张琪灵", "url": "https://zxx.im/", "tag": "投资,理财,Linux", "sign": "纵有疾风起，人生不言弃。", "feed": "", "status": "OK" },
    { "name": "至道小博", "url": "https://www.zdaoxb.com/", "tag": "文学,阅读,杂谈,笔记", "sign": "以大道为宗，以天地为依，以圣人为师，以经文为学。", "feed": "https://www.zdaoxb.com/feed/", "status": "ReadTimeout" },
    { "name": "那次", "url": "https://na.ci/", "tag": "生活,杂谈", "sign": "生活的意义就是陪伴！", "feed": "https://na.ci/feed/", "status": "OK" },
    { "name": "立云图志", "url": "http://www.lopwon.com/", "tag": "摄影,生活", "sign": "立云图志，周遭故事。", "feed": "http://www.lopwon.com/feed/", "status": "OK" },
    { "name": "格子老师", "url": "https://manman.qian.lu/", "tag": "随笔,语文", "sign": "遇见每一个孩子的成长", "feed": "https://manman.qian.lu/rsslatest.xml", "status": "OK" },
    { "name": "青萌", "url": "https://zzbapp.com/", "tag": "随笔", "sign": "走进青萌-你将占领年轻！", "feed": "https://zzbapp.com/feed.php", "status": "OK" },
    { "name": "牧羊人", "url": "https://www.shephe.com/", "tag": "生活,分享,记录,记事,旅游", "sign": "世事洞明皆学问，人情练达即文章。", "feed": "https://www.shephe.com/feed/", "status": "OK" },
    { "name": "青山绿水-胡和先的个人博客", "url": "https://www.huhexian.com/", "tag": "js,wordpress,emlog,技术", "sign": "主要分享自己的生活故事,对世间百态的简单看法,同时分享简单好玩的新奇玩意,分享生活与你的美。", "feed": "https://www.huhexian.com/feed/", "status": "OK" },
    { "name": "True's ME-初见", "url": "https://chujian.xyz/", "tag": "生活,杂谈,随笔", "sign": "", "feed": "", "status": "OK" },
    { "name": "忆往事", "url": "https://yiws.net/", "tag": "生活,记事,记录,随笔", "sign": "书已逝时光，忆旧日往事", "feed": "https://yiws.net/feed/", "status": "OK" },
    { "name": "NiCE", "url": "https://www.nice.im/", "tag": "记事,记录,生活,杂谈,图片", "sign": "", "feed": "", "status": "OK" },
    { "name": "尺宅杂记", "url": "http://www.qncd.com/", "tag": "文学,阅读,杂谈", "sign": "尺宅足自庇，寸田有余畦。", "feed": "http://www.qncd.com/?feed=rss2", "status": "OK" },
    { "name": "一个博客", "url": "https://boke.one/", "tag": "Python,建站", "sign": "我的折腾笔记", "feed": "https://boke.one/feed", "status": "OK" },
    { "name": "一介大叔", "url": "http://www.winature.com/", "tag": "生活,记事,记录", "sign": "日暮聊为梁父吟，花径不曾缘客扫。", "feed": "http://www.winature.com/?feed=rss2", "status": "OK" },
    { "name": "夜语凭栏", "url": "http://www.yezaifei.com/", "tag": "生活,记事,记录,杂谈", "sign": "时光，旅程，诗酒茶", "feed": "http://www.yezaifei.com/www.yezaifei.com/feed.asp", "status": "OK" },
    { "name": "FROYO's Blog", "url": "http://www.izhuyue.com/", "tag": "生活,记事,记录", "sign": "把握现在,拥抱未来", "feed": "http://www.izhuyue.com/feed/", "status": "OK" },
    { "name": "青箬笠", "url": "https://qingruoli.com/", "tag": "生活,杂谈,记事", "sign": "突然间他无法解释地迷上了这座古都。", "feed": "https://qingruoli.com/feed", "status": "OK" },
    { "name": "佐仔志", "url": "https://www.jinbo123.com/", "tag": "软路由", "sign": "I try to make it simple!", "feed": "https://www.jinbo123.com/feed", "status": "OK" },
    { "name": "不曾长大-秦飞的个人空间", "url": "https://qfsyj.com/", "tag": "生活,记事,记录,杂记", "sign": "万里归来仍少年，此心安处是吾乡。", "feed": "https://qfsyj.com/feed/", "status": "OK" },
    { "name": "风雨行者-非著名历史学爱好者", "url": "http://stuit.cn/", "tag": "历史,杂谈,新闻,推荐,观影", "sign": "", "feed": "", "status": "OK" },
    { "name": "守望轩-宁静雅致的小轩馆", "url": "https://www.watch-life.net/", "tag": "小程序,技术,生活,记事", "sign": "守望生活, 审视自我,宁静雅致的小轩馆.", "feed": "https://www.watch-life.net/feed", "status": "OK" },
    { "name": "小陈故事", "url": "https://www.chener.net/", "tag": "生活,记事,记录,杂谈", "sign": "只需看着别人精彩，老天对你另有安排。", "feed": "https://www.chener.net/feed/", "status": "OK" },
    { "name": "旅行漫记-Travel Journal", "url": "https://synyan.cn/", "tag": "摄影,旅游", "sign": "", "feed": "https://synyan.cn/feed", "status": "OK" },
    { "name": "我的天", "url": "http://www.xlanda.net/", "tag": "生活,记事,记录", "sign": "我天地，我胡来", "feed": "http://www.xlanda.net/feed", "status": "OK" },
    { "name": "小猪的窝", "url": "https://ezo.biz/", "tag": "数码,生活,记事,记录", "sign": "春梦不觉已流年，继续风雨兼程", "feed": "https://ezo.biz/feed/", "status": "OK" },
    { "name": "流浪天下", "url": "https://maie.name/", "tag": "摄影,旅游", "sign": "背包行走，流浪天下", "feed": "https://maie.name/feed", "status": "OK" },
    { "name": "尚磊的博客", "url": "https://shanglei.net/", "tag": "logseq,生活,记事", "sign": "记录和分享生活中的点滴发现", "feed": "https://shanglei.net/feed/", "status": "OK" },
    { "name": "随风沐虐", "url": "https://www.munue.com/", "tag": "wordpress,互联网,资讯", "sign": "万里风云三尺剑，一庭花草半床书", "feed": "https://www.munue.com/feed", "status": "OK" },
    { "name": "非学派", "url": "https://fxpai.com/", "tag": "生活,杂谈", "sign": "不与偏见和痼习为伍", "feed": "https://fxpai.com/feed/", "status": "OK" },
    { "name": "心灵博客", "url": "http://blog.dngz.net/", "tag": "路由器,生活,记事", "sign": "生活里一天天一些些一点点消失了…", "feed": "http://blog.dngz.net/feed", "status": "OK" },
    { "name": "因为很想念", "url": "https://ltmltm.cn/bk/", "tag": "生活,记事,记录,杂谈", "sign": "想念童年美好时光，想念难忘的学生时代，想念初恋的感觉", "feed": "https://ltmltm.cn/bk/feed/", "status": "OK" },
    { "name": "bang's blog", "url": "https://blog.cnbang.net/", "tag": "UI,生活,记事,杂谈", "sign": "", "feed": "https://blog.cnbang.net/feed/", "status": "OK" },
    { "name": "伪医生律师的博客", "url": "https://chidd.net/", "tag": "生活,杂谈,记事,图片", "sign": "记录、生活、思考", "feed": "https://chidd.net/feed", "status": "OK" },
    { "name": "胡涂说", "url": "https://hutusi.com/", "tag": "生活,杂谈,记事", "sign": "任抛星汉归园圃，留取乾坤盛酒囊", "feed": "https://hutusi.com/feed.xml", "status": "OK" },
    { "name": "NetCafe", "url": "https://hijoe.net/", "tag": "杂谈,生活,推荐", "sign": "", "feed": "", "status": "OK" },
    { "name": "西枫里", "url": "https://www.anji66.net/", "tag": "seo,生活,记事", "sign": "记录编程建站优化的学习博客", "feed": "https://www.anji66.net/rss.xml", "status": 502 },
    { "name": "生活的左上角", "url": "https://bwskyer.com/", "tag": "生活,记事,杂谈,资讯,wordpress", "sign": "", "feed": "https://bwskyer.com/feed", "status": "SSLError" },
    { "name": "木瓜园", "url": "https://muguayuan.com/", "tag": "旅游,摄影", "sign": "远引若至，临之已非！", "feed": "https://muguayuan.com/feed", "status": "OK" },
    { "name": "山野愚人居", "url": "https://www.iyuren.com/", "tag": "生活,记事", "sign": "记录我的生活、所见、所闻、所想……", "feed": "https://www.iyuren.com/feed", "status": "OK" },
    { "name": "挨踢路-老狼个人博客", "url": "https://itlu.org/", "tag": "博客,生活,Typecho", "sign": "", "feed": "", "status": "OK" },
    { "name": "酷壳", "url": "https://coolshell.cn/", "tag": "php,http,网络,架构,技术", "sign": "享受编程和技术所带来的快乐", "feed": "https://coolshell.cn/feed", "status": "OK" },
    { "name": "Hello Alili-前端大爆炸!", "url": "https://alili.tech/", "tag": "数学", "sign": "我一人之力并不能改变世界，但我往水面抛一块石头，就能激起许多涟漪。", "feed": "", "status": "OK" },
    { "name": "winegrower-种葡萄并酿酒的人", "url": "http://www.winegrower.cn/", "tag": "生活,记事,记录,杂谈", "sign": "", "feed": "http://www.winegrower.cn/feed/", "status": "OK" },
    { "name": "颜海镜", "url": "https://yanhaijing.com/", "tag": "react,css,git,node.js,html5,html", "sign": "专注Web前端", "feed": "https://yanhaijing.com/rss.xml", "status": "OK" },
    { "name": "justjavac-迷渡", "url": "https://justjavac.com/", "tag": "react,http,js,杂谈,git", "sign": "专注最时髦的web开发技术", "feed": "https://justjavac.com/atom.xml", "status": "OK" },
    { "name": "前端小武的博客", "url": "https://xuexb.com/", "tag": "架构,js,前端,技术", "sign": "", "feed": "https://xuexb.com/rss.html", "status": "OK" },
    { "name": "JerryQu 的小站", "url": "https://imququ.com/", "tag": "杂谈,js,技术", "sign": "专注WEB端开发", "feed": "https://imququ.com/rss.html", "status": "OK" },
    { "name": "蚊子-前端博客", "url": "https://www.xiabingbao.com/", "tag": "js,node.js,react,axios,vue.js,技术", "sign": "蚊子在前端开发工作中的总结", "feed": "https://www.xiabingbao.com/atom.xml", "status": "OK" },
    { "name": "不亦乐乎", "url": "https://lms.im/", "tag": "Wordpress,Linux,电视剧,Excel,", "sign": "自娱自乐，不亦乐乎!", "feed": "", "status": "OK" },
    { "name": "ZWWoOoOo", "url": "https://zww.me/", "tag": "生活,杂谈,记事,记录,数码", "sign": "因为喜欢所以折腾...无折腾不铁血！", "feed": "https://zww.me/feed", "status": "OK" },
    { "name": "从良未遂", "url": "https://www.ithmz.com/", "tag": "生活,记事,记录", "sign": "有事就做事，没事叼根烟", "feed": "https://www.ithmz.com/feed", "status": "OK" },
    { "name": "Huiris's log", "url": "https://huiris.com/", "tag": "文学,阅读,生活,杂谈", "sign": "", "feed": "https://huiris.com/feed/", "status": "OK" },
    { "name": "两公斤博客", "url": "https://twokg.com/", "tag": "生活,记事,记录", "sign": "坚持有态度的个人博客。", "feed": "https://twokg.com/feed/", "status": "OK" },
    { "name": "小赖子的英国生活和资讯", "url": "https://justyy.com/", "tag": "php,生活,记事,记录", "sign": "", "feed": "https://justyy.com/feed", "status": "OK" },
    { "name": "Fooleap's Blog", "url": "https://blog.fooleap.org/", "tag": "生活,记事,记录", "sign": "A foolish man could not always lose!", "feed": "https://blog.fooleap.org/atom.xml", "status": "OK" },
    { "name": "罗磊的独立博客", "url": "https://luolei.org/", "tag": "生活,旅游,记事,数码,网站推荐", "sign": "前端工程师，ZUOLUOTV制作人", "feed": "https://luolei.org/feed/", "status": "OK" },
    { "name": "forecho's Blog", "url": "https://blog.forecho.com/", "tag": "", "sign": "", "feed": "", "status": "OK" },
    { "name": "SYS 棚户区", "url": "https://www.syshut.com/", "tag": "生活,杂谈,wordpress", "sign": "学习•分享•创造", "feed": "https://www.syshut.com/feed", "status": "OK" },
    { "name": "kn007的个人博客", "url": "https://kn007.net/", "tag": "生活,记录,记事", "sign": "", "feed": "https://kn007.net/feed/", "status": "OK" },
    { "name": "半个C++程序员", "url": "http://cppdebug.com/", "tag": "qt,vtk,unity,c++,技术", "sign": "", "feed": "http://cppdebug.com/feed", "status": "OK" },
    { "name": "果果喵", "url": "http://moe.xin/", "tag": "生活,记事,互联网", "sign": "果果喵是一只喵为了在地球上刷存在感而创建的博客。", "feed": "http://moe.xin/feed", "status": "ConnectionError" },
    { "name": "月光酒馆", "url": "https://wanbk.net/", "tag": "生活,杂谈,记事", "sign": "感谢你一直都在", "feed": "https://wanbk.net/feed.php", "status": "SSLError" },
    { "name": "梦幻辰风", "url": "https://www.mhcf.net/", "tag": "回忆,生活,记事,记录", "sign": "莫問前路遙遠，與君風雪壹程", "feed": "https://www.mhcf.net/rss.php", "status": "OK" },
    { "name": "梦回故里", "url": "https://www.80shihua.com/", "tag": "php,mysql,linux,python,js,杂谈,技术", "sign": "一个php程序员的个人博客", "feed": "https://www.80shihua.com/feed", "status": "SSLError" },
    { "name": "林林杂语", "url": "https://www.linlinzzo.top/", "tag": "http,杂记", "sign": "听！林林在无病呻吟", "feed": "https://www.linlinzzo.top/feed", "status": "OK" },
    { "name": "江湖传说", "url": "http://www.zuijh.net/blog/", "tag": "生活,杂谈", "sign": "不忘初心 方得始终 初心易得 始终难守", "feed": "", "status": "OK" },
    { "name": "梦魇小栈", "url": "https://blog.ihoey.com/", "tag": "hexo,分享", "sign": "专注于分享", "feed": "https://blog.ihoey.com/atom.xml", "status": "OK" },
    { "name": "Mythsman", "url": "https://blog.mythsman.com/", "tag": "python,linux,java,分享", "sign": "I wonder how the world builds software.", "feed": "", "status": "OK" },
    { "name": "冰峰博客", "url": "https://www.ad-s.cn/", "tag": "access,生活,杂谈,互联网", "sign": "山高人为峰", "feed": "https://www.ad-s.cn/feed", "status": "OK" },
    { "name": "李阿斗-李精华", "url": "https://www.lijinghua.club/", "tag": "go,kubernetes,技术", "sign": "", "feed": "https://www.blog.lijinghua.club/feed/", "status": "OK" },
    { "name": "静夜", "url": "https://oohyo.github.io/", "tag": "css,杂记,记事,技术,小程序", "sign": "喜欢coding/猫/多肉/音乐/多肉", "feed": "https://oohyo.github.io/atom.xml", "status": "OK" },
    { "name": "无垠", "url": "https://flyhigher.top/", "tag": "技术,互联网", "sign": "飞翔的天空无限大", "feed": "https://flyhigher.top/feed", "status": "OK" },
    { "name": "量子广告", "url": "https://blog.ynxiu.com/", "tag": "python,git,github", "sign": "飞翔的天空无限大", "feed": "https://blog.ynxiu.com/atom.xml", "status": "OK" },
    { "name": "往前", "url": "https://wqian.net/", "tag": "日记,hexo,python,js", "sign": "有点小技，有点经验，有点幽默，有点情感", "feed": "", "status": "OK" },
    { "name": "CrazyWong", "url": "https://crazywong.com/", "tag": "css,js,hexo,技术", "sign": "熱衷學習，熱衷生活", "feed": "https://crazywong.com/atom.xml", "status": "OK" },
    { "name": "LeoLan's Blog", "url": "https://www.leolan.top/", "tag": "python,技术,docker,mysql", "sign": "有时候正是不报期望的人做出了人们不敢期望之事！", "feed": "https://www.leolan.top/feed/", "status": "ConnectionError" },
    { "name": "辣椒の酱", "url": "https://removeif.github.io/", "tag": "java,git,英语,语法,技术", "sign": "尚未执佩剑，转眼即江湖", "feed": "", "status": "OK" },
    { "name": "自由灵的梦境", "url": "https://lemonadorable.gitee.io/", "tag": "git,c,技术", "sign": "愿美梦成真", "feed": "", "status": "OK" },
    { "name": "Tokisaki Galaxy", "url": "https://tokisaki.top/", "tag": "C++,RPi,游戏", "sign": "", "feed": "https://tokisaki.top/atom.xml", "status": "OK" },
    { "name": "折影轻梦", "url": "https://nexmoe.com/", "tag": "生活,学习,记事", "sign": "", "feed": "https://nexmoe.com/atom.xml", "status": "OK" },
    { "name": "Sonic853", "url": "https://blog.853lab.com/", "tag": "HTML,js,Live2D,音乐", "sign": "Looking at the Stars.", "feed": "https://blog.853lab.com/feed", "status": "OK" },
    { "name": "泽泽社", "url": "https://blog.zezeshe.com/", "tag": "生活,Typecho,技术,ACG", "sign": "简单记录生活亦或是黑历史", "feed": "https://blog.zezeshe.com/feed/", "status": "OK" },
    { "name": "Dreamwings", "url": "https://www.dreamwings.cn/", "tag": "科研,网络安全", "sign": "继续踏上旅途，在没有你的春天……", "feed": "https://www.dreamwings.cn/feed", "status": "OK" },
    { "name": "Ailoli", "url": "https://www.ailoli.org/", "tag": "生活,Kotlin,php,vue", "sign": "永远年轻，永远热泪盈眶", "feed": "https://www.ailoli.org/feed/", "status": "OK" },
    { "name": "Troy's Blog-Troy的星球", "url": "https://itroy.cc/", "tag": "js,分享,技术", "sign": "Troy的星球", "feed": "https://itroy.cc/feed", "status": "OK" },
    { "name": "神楽坂玉兔", "url": "https://www.54yt.net/", "tag": "分享,破解,windows", "sign": "随风泯灭", "feed": "https://www.54yt.net/feed/", "status": "OK" },
    { "name": "FGHRSH的博客", "url": "https://www.fghrsh.net/", "tag": "HTML,测评,开箱", "sign": "梦总是有会醒来的时候，不会醒的梦总有一天会变成悲伤。", "feed": "https://www.fghrsh.net/feed.php", "status": "OK" },
    { "name": "Hran的博客", "url": "https://get233.com/", "tag": "Typecho,测评,宠物", "sign": "今天你喝够8杯水了没", "feed": "https://get233.com/feed/", "status": "OK" },
    { "name": "あかねぞら", "url": "https://kotori.love/", "tag": "", "sign": "", "feed": "https://kotori.love/atom.xml", "status": "OK" },
    { "name": "七夏浅笑", "url": "https://www.julydate.com/", "tag": "", "sign": "七月之约，夏末浅笑", "feed": "https://julydate-1251438221.file.myqcloud.com/atom.xml", "status": "OK" },
    { "name": "Waxxh's Blog", "url": "https://waxxh.me/", "tag": "", "sign": "御宅之力，终破次壁", "feed": "https://waxxh.me/feed/", "status": "OK" },
    { "name": "monsterlin's blog", "url": "https://monsterlin.com/", "tag": "", "sign": "乐于折腾，乐于分享，乐于交友", "feed": "https://monsterlin.com/feed/", "status": "OK" },
    { "name": "暮光博客", "url": "https://muguang.me/", "tag": "", "sign": "小心你讨厌的东西，因为你很可能被它塑造成某种形状", "feed": "https://muguang.me/feed/", "status": "OK" },
    { "name": "MoeShin", "url": "https://moeshin.com/", "tag": "", "sign": "", "feed": "https://moeshin.com/feed/", "status": "OK" },
    { "name": "聆听博客", "url": "https://www.lingtings.com/", "tag": "", "sign": "专注优质分享", "feed": "https://www.lingtings.com/feed/", "status": "OK" },
    { "name": "蚊BloG", "url": "https://qwq.moe/", "tag": "", "sign": "贫困の蚊子", "feed": "", "status": "OK" },
    { "name": "染念的笔记", "url": "https://dyedd.cn/", "tag": "", "sign": "Writing code, painful and happy", "feed": "https://dyedd.cn/feed/", "status": "OK" },
    { "name": "w候人兮猗", "url": "https://www.ahwgs.cn/", "tag": "", "sign": "2022冬奥会加油！", "feed": "https://www.ahwgs.cn/feed", "status": "OK" },
    { "name": "SycBlog", "url": "https://www.php.wf/", "tag": "", "sign": "始于初见，止于终老", "feed": "", "status": "OK" },
    { "name": "Lesun's Blog", "url": "https://xlesun.com/", "tag": "", "sign": "", "feed": "", "status": "OK" },
    { "name": "叶小明的博客-XIAOMING'S BLOG", "url": "https://vimin.cc/", "tag": "", "sign": "记录生活点滴，谱写精彩生活！", "feed": "https://vimin.cc/feed/", "status": "OK" },
    { "name": "登山亦有道", "url": "https://chenyan98.cn/", "tag": "", "sign": "记录日常，每天进步一点点。", "feed": "https://chenyan98.cn/feed/", "status": "OK" },
    { "name": "青山小站", "url": "https://blog.yanqingshan.com/", "tag": "", "sign": "一个在帝都搬砖的新时代农民工", "feed": "https://blog.yanqingshan.com/feed/", "status": "OK" },
    { "name": "尘心网", "url": "https://cx9.cn/", "tag": "", "sign": "专注于优质网络资源分享", "feed": "https://cx9.cn/feed/", "status": "OK" },
    { "name": "阿豪运维笔记", "url": "https://www.ahaoyw.com/", "tag": "", "sign": "我的运维生活学习网站", "feed": "https://www.ahaoyw.com/feed.php", "status": "OK" },
    { "name": "江寻博客", "url": "https://blog.cseve.com/", "tag": "", "sign": "向死而生", "feed": "", "status": "OK" },
    { "name": "闲趣日评", "url": "https://xqrp.com/", "tag": "", "sign": "记录生活与分享笔记的个人博客网站", "feed": "https://xqrp.com/feed", "status": "OK" },
    { "name": "小杨生活志", "url": "https://www.yanghuaxing.com/", "tag": "", "sign": "一个沙雕小青年记录成长生活的网站", "feed": "https://www.yanghuaxing.com/feed.php", "status": "OK" },
    { "name": "IT者", "url": "https://www.itze.cn/", "tag": "", "sign": "开发者领域", "feed": "https://www.itze.cn/feed", "status": "OK" },
    { "name": "林羽凡网", "url": "https://www.linyufan.com/", "tag": "", "sign": "勤勤恳恳写日记的普通人", "feed": "https://www.linyufan.com/rss.xml", "status": "ReadTimeout" },
    { "name": "阿呆博客-90后肥宅生活", "url": "https://bo.ke/", "tag": "", "sign": "90后肥宅生活", "feed": "https://bo.ke/feed/", "status": "SSLError" },
    { "name": "小灰狼", "url": "https://fly2lan.cc/", "tag": "", "sign": "零零碎碎，记录喜怒哀乐", "feed": "https://fly2lan.cc/feed/", "status": "OK" },
    { "name": "迟於", "url": "https://www.weingxing.cn/", "tag": "", "sign": "栖迟於一丘", "feed": "https://www.weingxing.cn/feed/", "status": "OK" },
    { "name": "杜郎俊赏", "url": "https://dujun.io/", "tag": "", "sign": "", "feed": "https://dujun.io/feed/", "status": "OK" },
    { "name": "白云苍狗", "url": "https://www.imalun.com/", "tag": "", "sign": "好好生活，好好工作，好好记录。每天多一点思考，每天就会多一点成长。", "status": "OK" },
    { "name": "威言威语", "url": "https://www.weisay.com/blog/", "tag": "", "sign": "我愿像茶一样，把苦涩留在心里，敬发出来的都是清香！", "status": "OK" },
    { "name": "冯献金个人博客", "url": "https://blog.fengxianjin.com/", "tag": "", "sign": "", "status": "OK" },
    { "name": "太傅博客", "url": "https://taifua.com/", "tag": "", "sign": "一个人的命运啊，当然要靠自我奋斗，但是也要考虑到历史的行程", "status": "OK" },
    { "name": "iMyShare-互联网人的博客", "url": "https://imyshare.com/blog/", "tag": "", "sign": "用文字沉淀工作、学习、生活的点滴，期待寻找共同的声音", "status": "OK" },
    { "name": "辛未羊的网络日志", "url": "https://panqiincs.me/", "tag": "", "sign": "人生如逆旅，我亦是行人", "status": "OK" },
    { "name": "Roookie博客", "url": "https://www.wlplove.com/", "tag": "", "sign": "记录·收纳·分享", "status": "OK" },
    { "name": "唯獨少了個字", "url": "https://kisskisso.com/", "tag": "", "sign": "我爱我的生活,希望一切安好", "status": "OK" },
    { "name": "OmegaXYZ-徐奕的专栏", "url": "https://www.omegaxyz.com/", "tag": "", "sign": "徐奕的专栏", "status": "OK" },
    { "name": "雷雷的个人博客", "url": "https://ll.sc.cn/", "tag": "", "sign": "爱生活-爱工作-爱折腾", "status": "OK" },
    { "name": "云游君的小站", "url": "https://www.yunyoujun.cn/", "tag": "", "sign": "希望能成为一个有趣的人", "status": "OK" },
    { "name": "Sukka's Blog", "url": "https://blog.skk.moe/", "tag": "", "sign": "童话只美在真实却从不续写", "status": 403 },
    { "name": "偕臧的小站", "url": "https://ifmet.cn/", "tag": "", "sign": "看待世界始终保持着好奇", "status": "OK" },
    { "name": "Hi, I Am I", "url": "https://5ime.cn/", "tag": "", "sign": "永远相信美好的事情即将发生", "status": "OK" },
    { "name": "Gaein nidb的小站", "url": "https://www.gaein.cn/", "tag": "", "sign": "今天也是精神C#人呢", "status": "OK" },
    { "name": "小康博客", "url": "https://www.antmoe.com/", "tag": "", "sign": "一个收藏回忆与分享技术的地方", "status": "OK" },
    { "name": "喵二の小博客", "url": "https://www.miaoer.xyz/", "tag": "", "sign": "缘，妙不可言", "status": "OK" },
    { "name": "Mayx的博客", "url": "https://mabbs.github.io/", "tag": "", "sign": "Mayx's Home Page", "status": "OK" },
    { "name": "約束の明日", "url": "https://asuhe.jp/", "tag": "", "sign": "ありふれたあの日々をただ思い返す", "status": "OK" },
    { "name": "蝉時雨", "url": "https://chanshiyu.com/#/", "tag": "", "sign": "蝉鸣如雨 花宵道中", "status": "OK" },
    { "name": "胖蒜", "url": "https://pangsuan.com/", "tag": "", "sign": "分享有价值的资源", "status": "OK" },
    { "name": "缙哥哥", "url": "https://www.dujin.org/", "tag": "", "sign": "与你分享我的点点滴滴生活", "status": "OK" },
    { "name": "不才的博客", "url": "https://www.notbucai.com/", "tag": "", "sign": "专注WEB前端，全面发展，做一个有梦想又憨憨的咸鱼。", "status": "OK" },
    { "name": "设若", "url": "https://sheruo.com/", "tag": "", "sign": "一个专注知识产权与互联网的博客", "status": "OK" },
    { "name": "廉月程博客", "url": "http://www.uy8.top/", "tag": "", "sign": "一个程序员的个人博客", "status": "OK" },
    { "name": "Ceil Profile", "url": "https://ceilwoo.com/", "tag": "", "sign": "", "status": "OK" },
    { "name": "Harries Blog", "url": "http://www.liuhaihua.cn/", "tag": "", "sign": "追心中的海，逐世界的梦", "status": "OK" },
    { "name": "iEdonの幻想郷", "url": "https://iedon.com/", "tag": "", "sign": "眼泪可以渡走悲伤,眼泪带不走的悲伤,就用笑声埋藏。", "status": "OK" },
    { "name": "FANG", "url": "https://moooc.cc/", "tag": "", "sign": "老冉冉其将至兮，恐修名之不立", "status": 403 },
    { "name": "墙头杏花", "url": "https://www.qiangtou.net/", "tag": "", "sign": "雁过留声", "status": "OK" },
    { "name": "千丝海阁", "url": "https://www.tiandiyoyo.com/", "tag": "", "sign": "挨踢人，自由软件开发者Tiandi的技术博客", "status": "OK" },
    { "name": "月小升网络笔记", "url": "https://java-er.com/", "tag": "", "sign": "", "status": "OK" },
    { "name": "和光同尘-南有嘉鱼-markhoo-沉默是金", "url": "https://www.markhoo.com/", "tag": "", "sign": "专注，自律，坚持", "status": "SSLError" },
    { "name": "沙聚塔", "url": "https://www.shajuta.com/", "tag": "", "sign": "关于IT-互联网-那些人-那些事的思考", "status": "OK" },
    { "name": "米米的博客", "url": "https://zhangshuqiao.org/", "tag": "", "sign": "做了一点微小的工作", "status": "OK" },
    { "name": "火丁笔记", "url": "https://blog.huoding.com/", "tag": "", "sign": "多研究些问题，少谈些主义。", "status": "OK" },
    { "name": "idea's blog", "url": "https://www.ideawu.net/blog/", "tag": "", "sign": "", "status": "OK" },
    { "name": "吴师兄学算法", "url": "https://www.cxyxiaowu.com/", "tag": "", "sign": "分享算法知识", "status": "OK" },
    { "name": "木木木木木", "url": "https://immmmm.com/", "tag": "", "sign": "", "status": "OK" },
    { "name": "t9t.io", "url": "https://blog.t9t.io/", "tag": "", "sign": "Building transparent startups", "status": "OK" },
    { "name": "萤火之森", "url": "http://frankorz.com/", "tag": "", "sign": "知识传承之地", "status": "OK" },
    { "name": "CodeSky-代码之空", "url": "https://www.codesky.me/", "tag": "", "sign": "随手记录自己的学习过程", "status": "OK" },
    { "name": "张戈博客", "url": "https://zhang.ge/", "tag": "", "sign": "关注IT运维技术及互联网的个人博客", "status": "OK" },
    { "name": "当然我在扯淡", "url": "https://www.yinwang.org/", "tag": "", "sign": "", "status": "OK" },
    { "name": "Chen's Blog", "url": "https://gh0st.cn/", "tag": "", "sign": "当你的才华还撑不起你的野心时，应该静下心去学习。", "status": "OK" },
    { "name": "大伟的博客", "url": "https://easeapi.com/blog/", "tag": "", "sign": "移动互联网技术原创博客，分享开发技术、观点心得、创意产品和职业感想。", "status": "OK" },
    { "name": "张鑫旭的个人主页", "url": "https://www.zhangxinxu.com/", "tag": "", "sign": "", "status": "OK" },
    { "name": "云风的BLOG", "url": "https://blog.codingnow.com/", "tag": "", "sign": "思绪来得快去得也快，偶尔会在这里停留", "status": "OK" },
    { "name": "ZDDHUB的博客", "url": "https://zddhub.com/", "tag": "", "sign": "Just for fun", "status": "OK" },
    { "name": "追梦人物的博客", "url": "https://www.zmrenwu.com/", "tag": "", "sign": "", "status": "OK" },
    { "name": "Ric-Blog", "url": "https://www.lichong.work/", "tag": "", "sign": "Talk less,think more,do more", "status": "OK" },
    { "name": "阁子", "url": "https://dfine.tech/", "tag": "", "sign": "多可喜，亦多可悲", "status": "OK" },
    { "name": "RidiQulous", "url": "https://ridiqulous.com/", "tag": "", "sign": "", "status": "OK" },
    { "name": "代码家", "url": "https://daimajia.com/", "tag": "", "sign": "善存于心，世界和平。", "status": "OK" },
    { "name": "技术小黑屋", "url": "https://droidyue.com/", "tag": "", "sign": "", "status": "OK" },
    { "name": "vzard's blog", "url": "https://blog.vzard.cn/", "tag": "", "sign": "just do it", "status": "OK" },
    { "name": "后端技术杂谈", "url": "https://www.rowkey.cn/", "tag": "", "sign": "What、Why、How", "status": "OK" },
    { "name": "Mr Li", "url": "https://blog.lui8.cn/", "tag": "", "sign": "Writing, writing, writing ...", "status": "OK" },
    { "name": "Armin's Blog", "url": "https://arminli.com/", "tag": "", "sign": "Written by Armin Li , a venture capitalist.", "status": "OK" },
    { "name": "吕大卫的官方网站", "url": "https://lvdawei.com/", "tag": "", "sign": "", "status": "OK" },
    { "name": "diss带码", "url": "https://dumplingbao.github.io/", "tag": "", "sign": "一只程序猿，一只diss带码的程序猿", "status": "OK" },
    { "name": "chai2010的博客", "url": "https://chai2010.cn/", "tag": "", "sign": "当歌曲和传说都已经哑巴的时候，只有代码还在说话!", "status": "OK" },
    { "name": "笨方法学写作", "url": "https://www.cnfeat.com/", "tag": "", "sign": "学苟知本，六经皆我注脚", "status": "OK" },
    { "name": "手柄君的小阁", "url": "https://www.bysb.net/", "tag": "", "sign": "黑色世界唯有东方的曙光。", "status": "OK" },
    { "name": "TIMEGG", "url": "https://timegg.top/", "tag": "", "sign": "放进时光蛋里。", "status": "OK" },
    { "name": "SKNP的小站", "url": "https://sknplz.xyz/", "tag": "", "sign": "Someday I Will Be Just Like You", "status": "OK" },
    { "name": "皮皮凛の小窝", "url": "https://owomoe.net/", "tag": "", "sign": "其生若浮，其死若休", "status": "OK" },
    { "name": "YuZhangWang的领域", "url": "https://www.yuzhang.wang/", "tag": "", "sign": "两岸猿声啼不住 轻舟已过万重山", "status": "OK" },
    { "name": "LeiWang1999", "url": "https://leiblog.wang/", "tag": "", "sign": "要当世界第一！", "status": "OK" },
    { "name": "Davinci的红茶馆", "url": "https://davincievans.top/", "tag": "", "sign": "路过的人，留下点什么吧", "status": "ConnectTimeout" },
    { "name": "饭饭's Blog", "url": "https://ffis.me/", "tag": "", "sign": "不忘初心，方得始终", "status": "OK" },
    { "name": "天空·边界", "url": "https://liyin.date/", "tag": "", "sign": "相传胜利者肯定手持正义，那仅是因为正义可以被胜利者定义", "status": "OK" },
    { "name": "陈沙克日志", "url": "http://www.chenshake.com/", "tag": "", "sign": "把我的过程记录下来，以免以后忘了", "status": "OK" },
    { "name": "透明思考", "url": "http://gigix.thoughtworkers.org/", "tag": "", "sign": "Transparent Thoughts", "status": "OK" },
    { "name": "記載著-The Will Will Web", "url": "https://blog.miniasp.com/", "tag": "", "sign": "記載著 Will 在網路世界的學習心得與技術分享", "status": "OK" },
    { "name": "程序师", "url": "https://www.techug.com/", "tag": "", "sign": "程序员、编程语言、软件开发", "status": "OK" },
    { "name": "解道jdon", "url": "https://www.jdon.com/", "tag": "", "sign": "传道解惑的架构师博客", "status": "OK" },
    { "name": "晚晴幽草轩", "url": "https://www.jeffjade.com/", "tag": "", "sign": "It's only too late if you decide it is. Get busy living. or get busy dying!", "status": "OK" },
    { "name": "the5fire", "url": "https://www.the5fire.com/", "tag": "", "sign": "", "status": "SSLError" },
    { "name": "余海峯 David-物理喵 phycat", "url": "https://hfdavidyu.com/", "tag": "", "sign": "TEACH YOUR CAT SCIENCE", "status": "OK" },
    { "name": "Mr. PM-下午先生", "url": "http://mrpm.cc/", "tag": "", "sign": "PM可以是產品經理、下午、Pig Man，但絕對不是Poor Man", "status": "OK" },
    { "name": "人人都是产品经理", "url": "http://iamsujie.com/", "tag": "", "sign": "成长中的产品经理，期待和同学们一起，用好产品改变世界~", "status": "OK" },
    { "name": "余果的博客", "url": "https://yuguo.us/", "tag": "", "sign": "一个产品设计师。", "status": "OK" },
    { "name": "vivaxy's Blog", "url": "https://vivaxyblog.github.io/", "tag": "", "sign": "", "status": "OK" },
    { "name": "Debug客栈", "url": "https://www.debuginn.cn/", "tag": "", "sign": "做一个爱分享的程序猿", "status": "OK" },
    { "name": "isaced", "url": "https://www.isaced.com/", "tag": "", "sign": "", "status": "OK" },
    { "name": "Jason", "url": "https://atjason.com/", "tag": "", "sign": "记录一位独立开发者的精进之路，分享自由职业者的生存方式。", "status": "OK" },
    { "name": "GeekPlux", "url": "https://geekplux.com/", "tag": "", "sign": "我认为衡量生命长度的不是时间而是经历，所以我会永远探索，把有限的时间浪费在无限的浅尝辄止上。", "feed": "https://geekplux.com/atom.xml", "status": "OK" },
    { "name": "王子亭的博客", "url": "https://jysperm.me/", "tag": "", "sign": "", "feed": "https://jysperm.me/atom.xml", "status": "OK" },
    { "name": "egoist", "url": "https://egoist.sh/?lang=chinese", "tag": "", "sign": "I'm a full-stack engineer who loves to build (break) things.", "feed": "https://egoist.sh/atom.xml", "status": "OK" },
    { "name": "扯氮集", "url": "http://weiwuhui.com/", "tag": "", "sign": "多歧为贵 不取苟同", "status": "OK" },
    { "name": "Celia的博客", "url": "https://blog.becomingcelia.com/", "tag": "", "sign": "曾立志当走南闯北游历天下的独立博客博主，现为喜欢整活的高中生一枚", "status": "OK" },
    { "name": "吾依旧博客", "url": "https://www.love-zz.cn/", "tag": "", "sign": "专业的网站SEO技术分享平台", "status": "OK" },
    { "name": "小刚的天堂", "url": "https://www.pokemon.vip/", "tag": "", "sign": "一个宝可梦纸模爱好者的博客，记录和分享与口袋妖怪之间的点点滴滴", "status": "OK" },
    { "name": "柚苏爱吹泡泡", "url": "http://sumual.cn/", "tag": "", "sign": "一个热爱ACG的高校生", "status": "OK" },
    { "name": "NMZA", "url": "https://www.nmza.net/", "tag": "", "sign": "迷失的人迷失了，相逢的人会再相逢", "status": "OK" },
    { "name": "Caid Blog-卡伊德的后院", "url": "https://www.caidhome.cn/", "tag": "", "sign": "一个主要记录个人学习笔记的网站", "status": "OK" },
    { "name": "I BCL.", "url": "https://ibcl.us/", "tag": "", "sign": "一个大一学生，热爱无线电、阅读、计算机", "status": "OK" },
    { "name": "Kira Blog-逝水 永恒", "url": "https://kira.cool/", "tag": "", "sign": "", "status": "OK" },
    { "name": "Microanswer", "url": "https://www.microanswer.cn/blogs", "tag": "", "sign": "Microanswer博客列表，一点一滴记录开发日志。", "status": "OK" },
    { "name": "朝圣'Blog-少年游", "url": "https://blog.mcpeach.cc/", "tag": "", "sign": "如果当时我们说了再见，后来是不是就可以再见", "status": "OK" },
    { "name": "小游网", "url": "https://xiaoyou66.com/", "tag": "", "sign": "一个分享个人笔记,个人生活经历,分享各种有趣资源,实用技能的个人二次元博客网站", "status": "OK" },
    { "name": "BangBangCat's Home-梆梆猫的小屋", "url": "https://www.bangbangcat.com/", "tag": "", "sign": "", "status": "OK" },
    { "name": "奈斯", "url": "https://nai.si/", "tag": "", "sign": "瑟瑟发抖的萌新OvO", "status": "OK" },
    { "name": "零奇部落阁", "url": "https://www.zyskys.com/", "tag": "", "sign": "零奇的个人博客网站，一个大学生的学习笔记", "status": "OK" },
    { "name": "JingFengJi", "url": "https://www.jingfengji.tech/", "tag": "", "sign": "Never put off till tomorrow what you can do today", "status": "OK" },
    { "name": "栖枝小栈", "url": "https://520526.xyz/", "tag": "", "sign": "一个用心创造设计改变生活的设计师", "status": "ConnectionError" },
    { "name": "BoyInTheSun", "url": "https://boyinthesun.cn/", "tag": "", "sign": "", "status": "OK" },
    { "name": "小弋の生活馆", "url": "https://lovelijunyi.gitee.io/", "tag": "", "sign": "不忘初心，勇往直前", "status": "OK" },
    { "name": "食葫芦的葫芦娃", "url": "https://pengyirui.gitee.io/", "tag": "", "sign": "记录互联网上的点点滴滴", "status": "OK" },
    { "name": "CtrlCV博客", "url": "https://www.hack-er.cn/", "tag": "", "sign": "CtrlCV博客一顿CV猛如虎", "status": "OK" },
    { "name": "meows", "url": "https://meows.moe/", "tag": "", "sign": "Thank you for finding me in a corner of the world", "status": "OK" },
    { "name": "itsNeko「生活日志」", "url": "https://dyfa.top/", "tag": "", "sign": "本站主要分享H5前端知识和笔记，博客搭建技巧，人生长谈，风花雪月之事。", "status": "OK" },
    { "name": "张洪Heo", "url": "https://blog.zhheo.com/", "tag": "", "sign": "分享设计与科技生活", "status": "OK" },
    { "name": "光影N棱镜Blog", "url": "https://shadowprism.cn/", "tag": "", "sign": "可能有你感兴趣的东西", "status": "OK" },
    { "name": "cx537の空间", "url": "https://cx537.cn/", "tag": "", "sign": "学习奋斗！", "status": "OK" },
    { "name": "LanYun", "url": "https://lanyundev.vercel.app/", "tag": "", "sign": "Full Stack Developer", "status": "OK" },
    { "name": "JanYork", "url": "https://ideaopen.cn/", "tag": "", "sign": "小简的博客里有傍晚的月亮和鸡鸣寺的樱花哦！", "status": "OK" },
    { "name": "罗小黑", "url": "https://www.aiyo99.com/", "tag": "", "sign": "我在等一个人，一个可以陪我很久很久的人", "status": "ReadTimeout" },
    { "name": "奈良池文阁", "url": "https://www.naraci.top/", "tag": "", "sign": "记录生活学习，分享生活趣事", "status": "OK" },
    { "name": "Aynxul03 写字的地方", "url": "https://ayx.moefox.tech/", "tag": "", "sign": "J. Random Blogger", "status": "OK" },
    { "name": "icebreaker", "url": "https://www.icebreaker.top/", "tag": "", "sign": "擅长批量生产邮件、文档和代码", "status": "OK" },
    { "name": "Wiken", "url": "https://www.hehuapei.com/", "tag": "", "sign": "wiken’s blog", "status": "OK" },
    { "name": "涛哥的博客", "url": "https://jaredtao.github.io/", "tag": "", "sign": "单枪匹马亦对饮，历经磨难记初心", "status": "OK" },
    { "name": "UsubeniFantasy", "url": "https://ssshooter.com/", "tag": "js,vue,生活,杂谈", "sign": "", "status": "OK" },
    { "name": "lucifer的网络博客", "url": "https://lucifer.ren/blog/", "tag": "生活,杂谈", "sign": "用来记录LeeCode刷题过程和心得，以及构建大前端知识体系", "status": "OK" },
    { "name": "Tianke Youke", "url": "https://jyzhu.top/", "tag": "生活,杂谈", "sign": "A Base for Secreting and Running at Night", "status": "OK" },
    { "name": "Yanliang", "url": "https://gyl-coder.top/", "tag": "jvm,kafka,sql,原理,互联网", "sign": "Believe in yourself.", "status": "OK" },
    { "name": "后端进阶", "url": "https://objcoding.com/", "tag": "互联网,redis,多线程,docker,java,kafka", "sign": "每一步成长都想与你分享", "status": "OK" },
    { "name": "空の領域", "url": "https://xsky.me/", "tag": "生活,杂谈", "sign": "又一个坑爹的神站 大人說：要清爽 要低調", "status": "OK" },
    { "name": "Claude's Blog", "url": "https://claude-ray.com/", "tag": "npm,verdaccio,js,node.js", "sign": "Now or Never", "status": "OK" },
    { "name": "城南旧事", "url": "https://blog.loli.top/", "tag": "", "sign": "透过文字和影像记忆，我们延长了至少三倍的生命。", "status": "OK" },
    { "name": "司马他", "url": "https://claude-ray.com/", "tag": "生活,杂谈", "sign": "Codes Speak Louder than Words.", "status": "OK" },
    { "name": "汀彵の汐-AugEnsteRn.", "url": "https://claude-ray.com/", "tag": "", "sign": "愿小仙女能被这世界温柔以待❤", "status": "OK" },
    { "name": "臾离博客", "url": "https://blog.xgblack.cn/", "tag": "", "sign": "小光要更努力啊", "status": 503 },
    { "name": "花开陌上", "url": "https://moshanghua.net/", "tag": "", "sign": "谁人踏花拾锦年，陌上花开缓缓归！", "status": "SSLError" },
    { "name": "生活志", "url": "http://louishan.com/", "tag": "", "sign": "Life will find its way out!", "status": "ReadTimeout" },
    { "name": "折影轻梦", "url": "https://nexmoe.com/", "tag": "", "sign": "", "status": "OK" },
    { "name": "Fakin's Blog", "url": "https://www.fakin.cn/", "tag": "", "sign": "今天又是充满希望的一天哦！", "status": "OK" },
    { "name": "山川行貉", "url": "https://scxho.cn/", "tag": "", "sign": "快让我在雪地上撒点野.", "status": "OK" },
    { "name": "西枫里", "url": "https://www.anji66.net/", "tag": "", "sign": "记录编程建站优化的学习博客", "status": 502 },
    { "name": "大博客", "url": "https://www.bigblog.cn/", "tag": "", "sign": "态度改变生活", "status": "OK" },
    { "name": "懒猫爱伸腰", "url": "https://guokm.cn/", "tag": "", "sign": "一只菜鸟的日志", "status": "OK" },
    { "name": "随望淡思", "url": "https://www.lushaojun.com/", "tag": "", "sign": "阿均的个人网志", "status": "OK" },
    { "name": "菜鸟头头", "url": "https://www.cnntt.com/", "tag": "", "sign": "真正的发现之旅，不在于寻找新的", "status": "OK" },
    { "name": "猪哥杂记", "url": "https://blog.dazhu1988.com/", "tag": "", "sign": "凡是遥远的地方对我都有一种诱惑,不是诱惑于美丽,就是诱惑于传说.", "status": "OK" },
    { "name": "SangSir", "url": "https://sangsir.com/", "tag": "", "sign": "艺术界的一朵奇葩", "status": "OK" },
    { "name": "情醉中国风", "url": "https://www.sqyai.com/", "tag": "", "sign": "烟雨红尘的寻觅，诗画江南的惦记", "status": "OK" },
    { "name": "远博", "url": "https://www.foryuanbo.com/", "tag": "", "sign": "世間好物不堅牢，彩雲易散琉璃脆。", "status": "OK" },
    { "name": "禾令奇", "url": "https://www.helingqi.com/", "tag": "", "sign": "记录生活，细说爱情", "status": "OK" },
    { "name": "WORTHY BLOG", "url": "https://www.worthy.cc/", "tag": "", "sign": "You can't change the past...", "status": "OK" },
    { "name": "hooyes", "url": "https://85.si/", "tag": "", "sign": "芝兰生于深林，不以无人而不芳", "status": "OK" },
    { "name": "Fluid", "url": "https://blog.or-so.cn/", "tag": "", "sign": "", "status": "OK" },
    { "name": "25H's Blog-ARAE", "url": "https://blog.arae.cc/", "tag": "", "sign": "一个安静的角落", "status": "OK" },
    { "name": "梦幻辰风", "url": "https://www.mhcf.net/", "tag": "", "sign": "莫問前路遙遠，與君風雪壹程", "status": "OK" },
    { "name": "缙哥哥", "url": "https://www.dujin.org/", "tag": "", "sign": "与你分享我的点点滴滴生活", "status": "OK" },
    { "name": "孤斗", "url": "http://d-d.design/", "tag": "", "sign": "做自己", "status": "OK" },
    { "name": "程志辉博客", "url": "https://www.qqzmly.com/", "tag": "", "sign": "一个伪文艺青年", "status": "OK" },
    { "name": "Mr.He", "url": "https://www.mrhe.net/", "tag": "", "sign": "分享老何的故事", "status": "OK" },
    { "name": "SKYue's Home", "url": "https://www.skyue.com/", "tag": "", "sign": "", "status": "OK" },
    { "name": "大程哥博客", "url": "http://dachengge.com/", "tag": "", "sign": "干一行爱一行", "status": "OK" },
    { "name": "笛声", "url": "https://hqidi.com/", "tag": "", "sign": "寻常的人儿依旧", "status": "OK" },
    { "name": "陈仓颉", "url": "https://imzm.im/", "tag": "", "sign": "以有涯随无涯", "status": "OK" },
    { "name": "思行者的星球", "url": "https://note-star.cn/", "tag": "", "sign": "我听到耶路撒冷的钟声响起", "status": "SSLError" },
    { "name": "赫赫文王", "url": "https://kqh.me/", "tag": "", "sign": "", "status": "OK" },
    { "name": "idealclover", "url": "https://idealclover.top/", "tag": "", "sign": "愿未来能让人有所期待", "status": "OK" },
    { "name": "南生余", "url": "https://www.chenii.com/", "tag": "", "sign": "一个混在IT界的农民工", "status": 403 },
    { "name": "水清无鱼", "url": "https://www.bosir.cn/", "tag": "", "sign": "记录和分享个人的成长过程", "status": "OK" },
    { "name": "汝者非鱼", "url": "https://rzfyu.com/", "tag": "", "sign": "听从己心，无问西东", "status": "OK" },
    { "name": "明心阁", "url": "http://mingxin.life/", "tag": "", "sign": "自明诚，自诚明", "status": "OK" },
    { "name": "甜甜圈", "url": "https://www.cfanlost.com/", "tag": "", "sign": "梦想成为宇宙杰出青年", "status": "OK" },
    { "name": "冰哥笔记", "url": "https://www.bgbiji.com/", "tag": "", "sign": "做一个有趣、有料的博客", "status": "OK" },
    { "name": "大魏教练", "url": "https://wwwsheep.com/", "tag": "", "sign": "青春只有一次，别让自己过得不精彩。", "status": "OK" },
    { "name": "那年的春天", "url": "http://blog.yuzone.net/", "tag": "", "sign": "", "status": "OK" },
    { "name": "FlyGoat's Blog", "url": "https://blog.flygoat.com/", "tag": "", "sign": "", "status": "OK" },
    { "name": "早茶月光", "url": "http://www.zcmol.com/index/", "tag": "", "sign": "", "status": "OK" },
    { "name": "TomorrowALi 's Blog", "url": "https://tomorrowali.top:8888/", "tag": "", "sign": "", "status": "OK" },
    { "name": "光阴小栈-代鹏的个人博客", "url": "https://www.vueweb.cn/", "tag": "", "sign": "", "status": "OK" },
    { "name": "梓青", "url": "https://www.ziqingi.com/", "tag": "", "sign": "生如蝼蚁当立鸿鹄之志，命薄如纸应有不屈之心", "status": "OK" },
    { "name": "⑨BIE", "url": "https://9bie.org/", "tag": "", "sign": "伪技术宅的迷之地 ~~ Strange Place Of The Pseudo Geeks", "status": "OK" },
    { "name": "凌一's Blog", "url": "https://lyiqk.cn/", "tag": "", "sign": "凌一个人点滴记录", "status": 521 },
    { "name": "lijiayan'Blog", "url": "https://www.lijiayan.cn/", "tag": "", "sign": "所謂人生 , 就是取決于遇見了誰...", "status": "OK" },
    { "name": "Nine-Lie", "url": "https://nine-lie.com/", "tag": "", "sign": "", "status": "OK" },
    { "name": "安奇小人物", "url": "https://blog.anky.cc/", "tag": "", "sign": "", "status": "OK" },
    { "name": "MASILY BLOG", "url": "https://masily365.github.io/", "tag": "", "sign": "程序员个人博客，用于记录日常学习内容、生活琐事等。", "status": "OK" },
    { "name": "zhangwei", "url": "https://zhangwei12345679.github.io/", "tag": "", "sign": "Stay Hungry, Stay Foolish.", "status": "OK" },
    { "name": "Hexo", "url": "https://totemguo.github.io/", "tag": "", "sign": "耐心专注 做到极致", "status": "OK" },
    { "name": "Jckling's Blog", "url": "https://jckling.github.io/", "tag": "", "sign": "", "status": "OK" },
    { "name": "Lijin Zhang", "url": "https://www.lijinzhang.com/post/", "tag": "", "sign": "终即始，黑夜之后必有黎明，大洋之下另有深渊。 – 爱默生", "status": "OK" },
    { "name": "风住街-流苏…", "url": "http://www.liusu.me/", "tag": "", "sign": "悠悠风来，寂静欢喜。", "status": "OK" },
    { "name": "醉秋风", "url": "https://blog.slomoo.cn/", "tag": "", "sign": "要相信，一切都是最好的安排！！", "status": "OK" },
    { "name": "忆梦小站", "url": "https://www.onyi.net/", "tag": "", "sign": "愿我如星君如月，夜夜流光相皎洁。", "status": "OK" },
    { "name": "花海博客", "url": "https://blog.junsangs.com/", "tag": "", "sign": "回到最初的美好", "status": "SSLError" },
    { "name": "Maxwell", "url": "https://imzxh.cn/", "tag": "", "sign": "Life is like live TV show. There is no rehearsal.", "status": "OK" },
    { "name": "w候人兮猗", "url": "https://www.ahwgs.cn/", "tag": "", "sign": "", "status": "OK" },
    { "name": "gorpeln的个人博客", "url": "https://gorpeln.cn/", "tag": "", "sign": "趁年轻，做自己想做的！", "status": "OK" },
    { "name": "我的足迹-铁匠铺", "url": "https://blog.fight365.cn/", "tag": "", "sign": "风暖鸟声碎，日高花影重。", "status": "SSLError" },
    { "name": "大嘴狗的小空间", "url": "https://www.sirit.com.cn/", "tag": "", "sign": "真正的幸福在于对平淡生活的热爱", "status": "OK" },
    { "name": "Liu先生的故事小屋", "url": "http://www.0lbo.cn/", "tag": "", "sign": "物語の書き方、結末は孤独ではない", "status": "ConnectionError" },
    { "name": "凡涛", "url": "https://fasxx.com/", "tag": "", "sign": "挑尽春风,去看四海潮生.", "status": "OK" },
    { "name": "皮毛技术君-dyt5AAUI的博客", "url": "https://www.whoit.top/", "tag": "", "sign": "一个普通人的生活纪实博客", "status": "OK" },
    { "name": "坏蛋的博客", "url": "https://www.ibadboy.net/", "tag": "", "sign": "非淡泊无以明志 非宁静无以致远", "status": "OK" },
    { "name": "我在人间凑数的日子", "url": "http://tantingfang.cn/", "tag": "", "sign": "不要承诺未知的事情，因为后果是你承担不起的.--散文集《我在人间凑数的日子》", "status": "OK" },
    { "name": "卫博生", "url": "https://www.webersongao.com/", "tag": "", "sign": "卫言微语,记录生活的点点滴滴！", "status": "SSLError" },
    { "name": "时光笔记", "url": "https://www.ttext.cn/", "tag": "", "sign": "记录逝去的时光，追忆美好的记忆", "status": "OK" },
    { "name": "我爱吃土豆", "url": "https://itudo.cn/", "tag": "", "sign": "做人，就要像土豆一样", "status": "OK" },
    { "name": "学霸时光机-苏耀峰的Blog", "url": "https://www.syf.ink/", "tag": "", "sign": "以朴素之笔记录生活中的点点滴滴，以简洁的篇章留住感动的美好瞬间，静静追寻远方的梦想和生活的美好。", "status": "OK" },
    { "name": "乘风", "url": "https://blog.zxliu.cn/", "tag": "", "sign": "", "status": "OK" },
    { "name": "莫比乌斯", "url": "https://onojyun.com/", "tag": "", "sign": "写作，一场自我悖论的旅程", "status": "OK" },
    { "name": "星辰日记", "url": "https://blog.xsot.cn/", "tag": "react,php,flutter", "sign": "原諒我這一生 不羁放纵爱自由", "status": "OK" },
    { "name": "贤民的比特记忆", "url": "https://www.xianmin.org/", "tag": "", "sign": "这里是我写字的地方", "status": "OK" },
    { "name": "Toanle.Blog日记", "url": "https://blog.toanle.cn/", "tag": "", "sign": "自强不息·厚德载物", "status": "OK" },
    { "name": "幸吾有志-扶木成枫", "url": "https://fmcf.cc/", "tag": "", "sign": "他戴着花冠，踏于风雪，探寻迷途的救赎", "status": "OK" },
    { "name": "OOIII", "url": "https://ooiii.com/", "tag": "", "sign": "Change or Die", "status": "OK" },
    { "name": "今今今生", "url": "https://noheart.cn/", "tag": "", "sign": "医不自医，人不渡己", "status": "OK" },
    { "name": "猫的三千年", "url": "https://szyink.com/", "tag": "", "sign": "繁星永存，记忆恒古不变。", "status": "ConnectionError" },
    { "name": "子兮子兮", "url": "https://szyink.com/", "tag": "", "sign": "子兮子兮风兮寒，三江七泽情洄沿。", "status": "ConnectionError" },
    { "name": "UYANG的博客", "url": "https://www.uyang.co/", "tag": "分享,笔记", "sign": "人生短短几十年,想笑就笑,想哭就哭，不要给自己留下遗憾。", "status": "OK" },
    { "name": "海加尔金鹰", "url": "https://www.hjljy.cn/", "tag": "分享,Java,Vue.js", "sign": "天道酬勤，星星之火可以燎原", "status": "OK" },
    { "name": "咖啡与代码", "url": "https://www.goozp.com/", "tag": "php,python,算法,Golang,容器", "sign": "当你发现自己的才华撑不起野心时，就请安静下来学习吧。", "status": "OK" },
    { "name": "幻浮辰", "url": "https://www.fuchen33.com/", "tag": "Python,分享,笔记", "sign": "一个分享技术，资源的站点", "status": "OK" },
    { "name": "青山小站", "url": "https://blog.yanqingshan.com/", "tag": "Java,分享", "sign": "一个在帝都搬砖的新时代农民工", "status": "OK" },
    { "name": "风渐远", "url": "https://www.naraku.cn/", "tag": "Java,安全,攻防", "sign": "迄今所有人生都大写着失败，但并不妨碍我继续向前。", "status": "OK" },
    { "name": "苍茫误此生博客", "url": "https://cangmang.xyz/", "tag": "Golang,Python,深度学习", "sign": "致力于分享web编程知识", "status": "OK" },
    { "name": "三石的记录", "url": "https://www.fllv.cn/", "tag": "杂谈,分享", "sign": "迷失的人迷失了，相逢的人会再相逢", "status": "OK" },
    { "name": "土木坛子", "url": "https://tumutanzi.com/", "tag": "分享,杂谈", "sign": "和光同尘，与时舒卷", "status": "OK" },
    { "name": "Bboysoul's Blog", "url": "https://www.bboy.app/", "tag": "笔记,Linux", "sign": "向知识投资", "status": "OK" },
    { "name": "致永远-For Aye", "url": "https://www.aye.ink/", "tag": "分享,电路,单片机", "sign": "莫道君行早 更有早行人", "status": "OK" },
    { "name": "戴兜的小屋", "url": "https://daidr.me/", "tag": "分享", "sign": "在迷失中寻找自我", "status": "OK" },
    { "name": "林澈思的茶", "url": "https://blog.gxuzf.com/", "tag": "笔记,感受,分享", "sign": "互联网资讯分享，记录美好生活。", "status": "OK" },
    { "name": "小王先森", "url": "https://xwsir.cn/", "tag": "生活,感受", "sign": "在隆冬，我终于知道，我身上有一个不可战胜的夏天。", "status": "OK" },
    { "name": "初夏酱", "url": "https://www.poploli.com/", "tag": "生活,杂谈", "sign": "我写过最短的情诗，是你的名字", "status": "OK" },
    { "name": "维克多小鱼", "url": "https://ioxray.com/", "tag": "笔记,杂谈", "sign": "迎着风，拥抱彩虹！", "status": "OK" },
    { "name": "彼岸临窗", "url": "https://blog.luziyang.cn/", "tag": "生活,情感", "sign": "认真生活和写作的博主", "status": "ConnectionError" },
    { "name": "刘童鞋的部落阁", "url": "https://blog.itliujia.cn/", "tag": "php,数据结构", "sign": "", "status": "OK" },
    { "name": "Muyun99", "url": "https://muyun.work/", "tag": "深度学习,python,随笔", "sign": "一生太短，一瞬好长", "status": "OK" },
    { "name": "夜半观星", "url": "https://www.ratodo.com/", "tag": "建站", "sign": "听，一颗星星落地作响！你别赤脚在这草地上散步，我的花园到处是星星的碎片。", "status": "OK" },
    { "name": "程序萌部落", "url": "https://www.cxmoe.com/", "tag": "linux,ubuntu,群晖,杂谈", "sign": "", "status": "OK" },
    { "name": "望月空", "url": "https://and.gg/", "tag": "随笔,typecho", "sign": "迷失的人迷失了，相逢的人会再相逢", "status": "OK" },
    { "name": "黄衣哥的惊人博客", "url": "https://blog.huangyige.xyz/", "tag": "随笔,生活", "sign": "博主自评最牛博客", "status": "OK" },
    { "name": "Jacky Tong", "url": "https://www.jackytong.com/", "tag": "c++,生活,软件推荐", "sign": "Great stories can change the world.", "status": "OK" },
    { "name": "M-x Chris-An-Emacser", "url": "https://chriszheng.science/", "tag": "随笔,杂谈,Emacs,科学研究", "sign": "一个Emacs爱好者的闲言碎语", "status": "OK" },
    { "name": "0xe799bde88f9c", "url": "https://www.summershrimp.com/", "tag": "容器,安全,攻防", "sign": "一只苦逼的开发狗，理智成为安全工程师。", "feed": "https://www.summershrimp.com/feed/", "status": "OK" },
    { "name": "三帛的世界", "url": "https://blog.vvzero.com/", "tag": "笔记,开发,技术", "sign": "嵌入式物联网全栈系统工程师", "feed": "https://blog.vvzero.com/atom.xml", "status": "OK" },
    { "name": "于笙博客", "url": "https://www.iysheng.com/", "tag": "笔记,杂谈", "sign": "承蒙遇见，三生有幸", "feed": "https://www.iysheng.com/index.php/feed/", "status": "OK" },
    { "name": "枫叶笔记", "url": "https://www.viernes.cn/", "tag": "摄影,音乐,记录", "sign": "极致就是艺术", "feed": "https://www.viernes.cn/feed/", "status": "OK" },
    { "name": "火喵博客", "url": "https://cat.dorcandy.cn/", "tag": "生活,笔记,杂谈", "sign": "——放逐茫茫人海里，常常会有这样的陌路擦肩。某一个人走进你的视线里，成了令你心动的风景，而他却不知道这世界上有过一个你。又或许，你落入别人的风景里，却不知道，这世上曾经有过一个他。", "feed": "https://cat.dorcandy.cn/feed/", "status": "OK" },
    { "name": "MEMORIAL TRASH", "url": "https://wens.news/", "tag": "图片,分享", "sign": "My memorial trash", "feed": "https://wens.news/feed", "status": "ConnectTimeout" },
    { "name": "凡梦's blog", "url": "https://www.xiaofm.cn/", "tag": "杂谈,随笔", "sign": "学文科的艺术生", "feed": "https://www.xiaofm.cn/feed", "status": "OK" },
    { "name": "HuihuanX", "url": "https://www.huihuanx.cn/", "tag": "杂谈,笔记", "sign": "天与短因缘，聚散常容易。", "feed": "https://www.huihuanx.cn/?feed=rss2", "status": "OK" },
    { "name": "三叶の小窝", "url": "https://blog.mitsuha.space/", "tag": "算法,前端,笔记", "sign": "想成为知道自己知道的人", "feed": "https://blog.mitsuha.space/feed/", "status": "SSLError" },
    { "name": "RIVALSA 网络空间", "url": "https://main.rivalsa.net/", "tag": "", "sign": "", "feed": "", "status": "ConnectionError" },
    { "name": "阁主博客", "url": "https://www.mainblog.cn/", "tag": "", "sign": "不止于代码", "feed": "https://www.mainblog.cn/feed.php", "status": "OK" },
    { "name": "染念的笔记", "url": "https://dyedd.cn/", "tag": "", "sign": "Writing code, painful and happy", "feed": "https://dyedd.cn/feed/", "status": "OK" },
    { "name": "海不眠", "url": "https://wcnmb.cn/", "tag": "生活,技术", "sign": "至少我们可以看到同一个月亮！", "feed": "https://wcnmb.cn/feed/", "status": "OK" },
    { "name": "武志红的杂货铺", "url": "https://www.imwzh.com/", "tag": "", "sign": "不以物喜，不以己悲", "feed": "https://www.imwzh.com/feed/", "status": "ConnectionError" },
    { "name": "喂马劈柴", "url": "https://blog.shaoxiao.net/", "tag": "", "sign": "一个媒介学习者的个人庭院", "feed": "https://blog.shaoxiao.net/feed/", "status": "OK" },
    { "name": "不淡定实验室", "url": "https://xd.sh.cn/", "tag": "", "sign": "传递创造力！", "feed": "https://xd.sh.cn/feed/", "status": "OK" },
    { "name": "JcLinTop", "url": "https://blog.jclin.top/", "tag": "", "sign": "积极乐观，生活定能风生水起", "feed": "https://blog.jclin.top/feed/", "status": "OK" },
    { "name": "Uncle_drew", "url": "https://cndrew.cn/", "tag": "", "sign": "Hand down,man down", "feed": "https://cndrew.cn/atom.xml", "status": "OK" },
    { "name": "走小路的博客", "url": "https://www.zxld.top/", "tag": "", "sign": "路过，即是一种缘分", "feed": "https://www.zxld.top/feed/", "status": "OK" },
    { "name": "EASON+", "url": "https://www.easonx.cn/", "tag": "", "sign": "The Freedom Place", "feed": "https://www.easonx.cn/atom.xml", "status": "OK" },
    { "name": "青春", "url": "http://qingchun.org/", "tag": "", "sign": "永远年轻，永远热泪盈眶", "feed": "http://qingchun.org/feed", "status": "OK" },
    { "name": "念喵笔记博客", "url": "https://myo.ink/", "tag": "", "sign": "记录影视生涯从业中的点点滴滴", "feed": "https://myo.ink/feed", "status": "OK" },
    { "name": "江博客-李学江的个人博客", "url": "https://www.lixuejiang.com", "tag": "", "sign": "", "feed": "https://www.lixuejiang.com/feed/", "status": "OK" },
    { "name": "猕猴の那年记忆", "url": "https://www.kiwiape.cn/", "tag": "", "sign": "希望你的坚持都是因为热爱，而不是不甘", "feed": "https://www.kiwiape.cn/feed/", "status": "OK" },
    { "name": "一大加贝", "url": "https://www.yidajiabei.xyz/", "tag": "", "sign": "谨以此博客献给未来的自己", "feed": "https://www.yidajiabei.xyz/atom.xml", "status": "OK" },
    { "name": "沈大力的窝-沈力的个人网站", "url": "http://www.leeshen.net/", "tag": "", "sign": "Stay hungry, stay foolish.", "feed": "", "status": "OK" },
    { "name": "清酒", "url": "https://blog.lkxin.cn/", "tag": "", "sign": "新的生活，新的记录！", "feed": "https://blog.lkxin.cn/feed/", "status": "OK" },
    { "name": "Mr.He", "url": "https://www.mrhe.net/", "tag": "", "sign": "分享老何的故事", "feed": "https://www.mrhe.net/feed/", "status": "OK" },
    { "name": "Mystery博客", "url": "https://blog.say521.cn/", "tag": "", "sign": "一个普通本科生的个人博客，用来记录自己的成长，分享有学习笔记。", "feed": "https://blog.say521.cn/feed/", "status": 403 },
    { "name": "妖业蛋", "url": "https://yaoyedan.net/", "tag": "", "sign": "人生苦短，及时行乐！", "feed": "https://yaoyedan.net/feed", "status": "OK" },
    { "name": "陈陈菌博客", "url": "https://blog.glumi.cn/", "tag": "", "sign": "主要以记录个人生活点滴与计算机技术为相关。", "feed": "", "status": "OK" },
    { "name": "老余博客", "url": "https://www.xjqyc.cn/", "tag": "", "sign": "", "feed": "", "status": "OK" },
    { "name": "白天博客", "url": "https://www.seobti.com/", "tag": "", "sign": "专注网络营销推广、网络运营类知识学习与分享", "feed": "", "status": "OK" },
    { "name": "Frank笔记", "url": "https://frank2019.me/", "tag": "", "sign": "记录蜕变后的生活", "feed": "https://frank2019.me/rss.xml", "status": "OK" },
    { "name": "Justlovesmile's BLOG", "url": "https://blog.justlovesmile.top/", "tag": "", "sign": "Writer(记录) & Maker(创作) & Developer(启发)", "feed": "https://blog.justlovesmile.top/atom.xml", "status": "OK" },
    { "name": "Aimee resume", "url": "https://blog.mangoya.cn/", "tag": "", "sign": "", "feed": "", "status": "OK" },
    { "name": "DataScience", "url": "https://www.a2data.cn/", "tag": "", "sign": "", "feed": "", "status": "OK" },
    { "name": "霭客溪", "url": "https://www.aikexi.com/", "tag": "", "sign": "行到水穷处，坐看云起时", "feed": "https://www.aikexi.com/feed", "status": "OK" },
    { "name": "熊二哈的猫窝", "url": "https://www.wispx.cn/", "tag": "", "sign": "我在纯白的世界里做着有关救赎的梦。", "feed": "https://www.wispx.cn/atom.xml", "status": "OK" },
    { "name": "一隅博客", "url": "https://www.arro.cn/", "tag": "", "sign": "", "feed": "", "status": "OK" },
    { "name": "北故博客", "url": "https://bestgu.cn/", "tag": "", "sign": "没有技术，不是大佬。", "feed": "https://bestgu.cn/feed/", "status": 403 },
    { "name": "沈唁志", "url": "https://qq52o.me/", "tag": "", "sign": "一个PHPer的成长之路", "feed": "https://qq52o.me/feed", "status": "OK" },
    { "name": "一人夕", "url": "https://izpan.com/", "tag": "", "sign": "码农技术成长道路中的学习博客", "feed": "https://izpan.com/feed", "status": "ReadTimeout" },
    { "name": "Laravel 学院", "url": "https://laravelacademy.org/", "tag": "", "sign": "Laravel 全栈开发学习平台", "feed": "", "status": "OK" },
    { "name": "白俊遥博客", "url": "https://baijunyao.com/", "tag": "", "sign": "", "feed": "", "status": "OK" },
    { "name": "歪麦博客", "url": "https://www.awaimai.com/", "tag": "", "sign": "蒙国造的技术博客", "feed": "https://www.awaimai.com/feed", "status": "OK" },
    { "name": "风雪之隅-Laruence的博客", "url": "https://www.laruence.com/", "tag": "", "sign": "左手代码右手诗", "feed": "https://www.laruence.com/feed", "status": "OK" },
    { "name": "LaneBlog", "url": "http://www.lanecn.com/", "tag": "", "sign": "蝼蚁虽小 也有梦想", "feed": "http://www.lanecn.com/index.php/feed/", "status": "OK" },
    { "name": "Java天堂-Java学习笔记", "url": "https://www.javatt.com/", "tag": "", "sign": "", "feed": "https://www.javatt.com/feed", "status": "OK" },
    { "name": "php程序员的笔记", "url": "https://www.phpernote.com/", "tag": "", "sign": "一个php程序员的工作生活笔记", "feed": "", "status": "OK" },
    { "name": "wujunze`s Blog", "url": "https://wujunze.com/", "tag": "", "sign": "Just for Fun", "feed": "https://wujunze.com/index.xml", "status": "OK" },
    { "name": "闲言碎语", "url": "https://loveteemo.com/", "tag": "", "sign": "脚踏实地 仰望星空", "feed": "", "status": "OK" },
    { "name": "KouKou的技术博客", "url": "https://www.koukousky.com/", "tag": "", "sign": "", "feed": "https://www.koukousky.com/feed", "status": "OK" },
    { "name": "玄玄之家技术分享", "url": "https://www.blogxuan.com/", "tag": "", "sign": "", "feed": "", "status": "OK" },
    { "name": "小张个人博客", "url": "http://www.023xs.cn/", "tag": "", "sign": "分享Web技术的个人博客网站", "feed": "", "status": "OK" },
    { "name": "lulublog", "url": "https://lulublog.cn/", "tag": "", "sign": "", "feed": "", "status": "OK" },
    { "name": "仙士可博客", "url": "https://www.php20.cn/", "tag": "", "sign": "后端工程师的成长之路", "feed": "", "status": "OK" },
    { "name": "小风博客-佘佳栋的个人博客", "url": "https://www.hotxf.com/", "tag": "", "sign": "", "feed": "", "status": "OK" },
    { "name": "黄信强博客", "url": "https://www.hxinq.com/", "tag": "", "sign": "", "feed": "", "status": "OK" },
    { "name": "冯奎博客", "url": "https://fengkui.net/", "tag": "", "sign": "坚持比努力更可怕！", "feed": "", "status": "OK" },
    { "name": "程序猴", "url": "https://www.chenxuhou.com/", "tag": "", "sign": "", "feed": "", "status": "OK" },
    { "name": "phpbloger", "url": "https://www.phpbloger.com/", "tag": "", "sign": "一个热爱技术并热爱分享的技术博客", "feed": "https://www.phpbloger.com/feed/", "status": "OK" },
    { "name": "小周博客", "url": "https://www.css3er.com/", "tag": "", "sign": "", "feed": "", "status": "OK" },
    { "name": "风三郎个人博客", "url": "https://www.fengsanlang.cn/", "tag": "", "sign": "一个站在web后端端之路的个人博客网站", "feed": "", "status": "OK" },
    { "name": "Techeek's Studio.", "url": "https://www.techeek.cn/", "tag": "", "sign": "程序员的杂货铺", "feed": "https://www.techeek.cn/atom.xml", "status": "SSLError" },
    { "name": "Siam博客", "url": "https://blog.siammm.cn/", "tag": "", "sign": "", "feed": "", "status": 503 },
    { "name": "仙士可博客", "url": "https://www.php20.cn/", "tag": "", "sign": "后端工程师的成长之路", "feed": "", "status": "OK" },
    { "name": "犯二青年博客", "url": "https://findcat.cn/", "tag": "", "sign": "一个平淡的开发者~", "feed": "", "status": "OK" },
    { "name": "五块蛋糕", "url": "https://fivecakes.com/", "tag": "", "sign": "", "feed": "", "status": "OK" },
    { "name": "Wineforever's BLOG", "url": "https://www.wineforever.com.cn/", "tag": "", "sign": "", "feed": "", "status": "OK" },
    { "name": "一叶三秋", "url": "https://ghser.com/", "tag": "", "sign": "秋风拂来枫叶落", "feed": "https://ghser.com/feed", "status": "ConnectionError" },
    { "name": "Sankurao-行则将至", "url": "https://sankurao.cn/", "tag": "", "sign": "", "feed": "https://sankurao.cn/feed/", "status": "OK" },
    { "name": "黑石博客", "url": "https://www.heson10.com/", "tag": "", "sign": "人生在勤，不索何获", "feed": "https://www.heson10.com/atom.xml", "status": "OK" },
    { "name": "WhiteFan", "url": "https://www.baifan97.cn/", "tag": "技术,开箱,生活,影评,摄影", "sign": "先让自己喜欢上自己", "feed": "https://www.baifan97.cn/feed/", "status": "OK" },
    { "name": "飞翔沫沫情博客", "url": "https://fxkjnj.com/", "tag": "", "sign": "一只运维狗的升级打怪之旅", "feed": "https://fxkjnj.com/feed", "status": "OK" },
    { "name": "贺大佬", "url": "https://www.hedalao.com/", "tag": "生活,杂谈", "sign": "遗憾千万种 各人皆不同", "feed": "https://www.hedalao.com/feed", "status": "SSLError" },
    { "name": "UTOPIA", "url": "https://ishya.top/", "tag": "", "sign": "", "feed": "", "status": "OK" },
    { "name": "7Wate`s Blog", "url": "https://blog.7wate.com/", "tag": "", "sign": "7Wate 的个人生活和工作记录", "feed": "https://blog.7wate.com/feed", "status": "OK" },
    { "name": "听得入迷空间", "url": "https://blog.tdrme.cn/", "tag": "", "sign": "", "feed": "", "status": "OK" },
    { "name": "傻猫网络日志", "url": "https://www.samool.com/", "tag": "生活,创业,Android,前端,后端,typecho,mysql,linux", "sign": "主要用于记录工作、生活、学习相关内容", "feed": "https://www.samool.com/feed/", "status": "OK" },
    { "name": "徐泽林的博客", "url": "https://zlinblog.cn/", "tag": "", "sign": "唯书籍不朽", "feed": "", "status": "OK" },
    { "name": "雨落泪尽", "url": "https://couqiao.net/", "tag": "", "sign": "今人不见古时月，今月曾经照古人", "feed": "https://couqiao.net/atom.xml", "status": "OK" },
    { "name": "人淡如菊", "url": "https://www.panaihua.com/", "tag": "java web,python,爬虫", "sign": "不断总结，只有成长生命才有意义", "feed": "", "status": "OK" },
    { "name": "煮饭", "url": "https://zhufan.net/", "tag": "", "sign": "请相信你的指尖拥有改变世界的力量", "feed": "https://zhufan.net/index.xml", "status": "OK" },
    { "name": "滑天下之大稽", "url": "https://www.logicjake.xyz/", "tag": "算法,竞赛,数据挖掘,机器学习", "sign": "无问西东", "feed": "https://www.logicjake.xyz/atom.xml", "status": "OK" },
    { "name": "Stdio's Blog", "url": "https://www.logicjake.xyz/", "tag": "", "sign": "", "feed": "https://blog.stdioa.com/atom.xml", "status": "OK" },
    { "name": "DoubleMice", "url": "https://doublemice.github.io/", "tag": "", "sign": "我以晦朔春秋为聘，不知你愿否共我度完蜉蝣小年。", "feed": "https://doublemice.github.io/feed.xml", "status": "OK" },
    { "name": "CosmosNing 的个人博客", "url": "https://cosmosning.github.io/", "tag": "", "sign": "探索・好奇", "feed": "https://cosmosning.github.io/atom.xml", "status": "OK" },
    { "name": "tyfann blog", "url": "https://yufantang.top/", "tag": "", "sign": "尽量不严肃的码农", "feed": "", "status": "OK" },
    { "name": "谢益辉", "url": "https://yihui.org/cn/", "tag": "", "sign": "", "feed": "https://yihui.org/cn/index.xml", "status": "OK" },
    { "name": "木遥的窗子", "url": "https://blog.farmostwood.net/", "tag": "", "sign": "", "feed": "https://blog.farmostwood.net/feed/", "status": "OK" },
    { "name": "Howard Cheung", "url": "https://h-cheung.gitlab.io/", "tag": "", "sign": "", "feed": "https://h-cheung.gitlab.io/index.xml", "status": "OK" },
    { "name": "Deepzz", "url": "https://deepzz.com/", "tag": "", "sign": "唯爱与美食不可辜负也", "feed": "https://deepzz.com/feed", "status": "OK" },
    { "name": "Tianke Youke", "url": "https://jyzhu.top/", "tag": "", "sign": "A Base for Secreting and Running at Night", "feed": "https://jyzhu.top/atom.xml", "status": "OK" },
    { "name": "吴凯凯的博客", "url": "https://wukaikai.tech/", "tag": "", "sign": "记录成长", "feed": "", "status": "OK" },
    { "name": "physixfan", "url": "https://www.physixfan.com/", "tag": "", "sign": "细推物理须行乐 何用浮名绊此身", "feed": "https://www.physixfan.com/feed/", "status": "OK" },
    { "name": "迷途小书童的Note", "url": "https://xugaoxiang.com/", "tag": "", "sign": "编程、技术、分享", "feed": "https://xugaoxiang.com/feed/", "status": "OK" },
    { "name": "DoctorXu", "url": "https://xuyisheng.top/", "tag": "", "sign": "", "feed": "https://xuyisheng.top/rss/", "status": "OK" },
    { "name": "TONY'S TOY BLOG", "url": "https://www.tony-bro.com/", "tag": "", "sign": "A boring soul ...", "feed": "https://www.tony-bro.com/atom.xml", "status": "OK" },
    { "name": "enoch2090", "url": "https://www.enoch2090.me/", "tag": "", "sign": "Daydreaming the whole day through.", "feed": "", "status": "OK" },
    { "name": "风与牧歌", "url": "https://blog.besscroft.com/", "tag": "", "sign": "", "feed": "https://blog.besscroft.com/rss.xml", "status": "OK" },
    { "name": "Godot's Blog", "url": "https://iamgodot.com/", "tag": "", "sign": "", "feed": "https://iamgodot.com/index.xml", "status": "OK" },
    { "name": "程序员充电站", "url": "https://itcharge.cn/", "tag": "", "sign": "", "feed": "https://itcharge.cn/feed/", "status": "OK" },
    { "name": "ROYWANG", "url": "https://rise.rs/", "tag": "", "sign": "", "feed": "https://rise.rs/feed", "status": "OK" },
    { "name": "乔克叔叔的床边故事", "url": "https://lifeodyssey.github.io/", "tag": "", "sign": "", "feed": "https://lifeodyssey.github.io/atom.xml", "status": "OK" },
    { "name": "HaoKunT的博客", "url": "https://hkvision.cn/", "tag": "", "sign": "GIS学生党，喜欢学习新技术", "feed": "https://hkvision.cn/index.xml", "status": "" },
    { "name": "音视频开发进阶", "url": "https://glumes.com/", "tag": "", "sign": "", "feed": "https://glumes.com/index.xml", "status": "" },
    { "name": "阿毛的蛋疼地", "url": "https://xiangwangfeng.com/", "tag": "", "sign": "", "feed": "https://xiangwangfeng.com/atom.xml", "status": "" },
    { "name": "kok的笔记本", "url": "https://wocai.de/", "tag": "", "sign": "", "feed": "https://wocai.de/index.xml", "status": "" },
    { "name": "搞搞震", "url": "https://www.wujingquan.com/", "tag": "", "sign": "", "feed": "https://www.wujingquan.com/atom.xml", "status": "" },
    { "name": "Est's Blog", "url": "https://blog.est.im/", "tag": "", "sign": "", "feed": "https://feeds.feedburner.com/initiative", "status": "" },
    { "name": "Drcus-迪卡", "url": "https://yazhen.me/", "tag": "", "sign": "", "feed": "", "status": "" },
    { "name": "杂货屋", "url": "https://sword.studio/", "tag": "", "sign": "本站主要用于记录和分享我所折腾过的东西", "feed": "https://sword.studio/feed/", "status": "" },
    { "name": "前端桃园", "url": "https://www.taoweng.site/", "tag": "", "sign": "Enjoy when you can, and endure when you must.", "feed": "https://feeds.feedburner.com/initiative", "status": "" },
    { "name": "薛定喵君", "url": "http://xuedingmiao.com/", "tag": "", "sign": "", "feed": "", "status": "" },
    { "name": "Est's Blog", "url": "https://blog.est.im/", "tag": "", "sign": "", "feed": "https://feeds.feedburner.com/initiative", "status": "" },
    { "name": "夜街尘", "url": "https://aprilforest.cn/index.html", "tag": "", "sign": "眨眼间，已是千年之外", "feed": "", "status": "" },
    { "name": "若志随笔", "url": "https://www.rz.sb/", "tag": "", "sign": "愿世界安康，愿你我皆好！", "feed": "https://www.rz.sb/feed/", "status": "" },
    { "name": "岳泽以", "url": "https://www.yuezeyi.com/", "tag": "", "sign": "愿我如星君如月，夜夜流光相皎洁。", "feed": "https://www.yuezeyi.com/feed/", "status": "" },
    { "name": "稻草人的深夜阳台", "url": "https://scarecrow08.com/", "tag": "", "sign": "", "feed": "https://scarecrow08.com/feed/", "status": "" },
    { "name": "独殇小册-独元殇的独立博客", "url": "http://www.dushangself.site/emlog/", "tag": "", "sign": "", "feed": "http://www.dushangself.site/emlog/rss.php", "status": "" },
    { "name": "2B博客-2BROEAR", "url": "https://blog.2broear.com/", "tag": "", "sign": "", "feed": "http://www.dushangself.site/emlog/rss.php", "status": "" },
    { "name": "Hhua", "url": "http://www.heblogs.cn/", "tag": "react,js,flutter,vue.js", "sign": "", "feed": "", "status": "" },
    { "name": "杨青青个人博客", "url": "https://www.qingqingblog.com/", "tag": "", "sign": "专注前端设计的女程序员的个人博客网站", "feed": "", "status": "" },
    { "name": "I'm小狐仙", "url": "https://www.huxianbk.cn/", "tag": "", "sign": "一位会写点代码的小仙女", "feed": "https://www.huxianbk.cn/feed/", "status": "" },
    { "name": "Geek", "url": "https://blog.kamtao.com/", "tag": "", "sign": "一个前端写的一个博客", "feed": "", "status": "" },
    { "name": "Asnull-如空", "url": "https://blog.lipux.cn/", "tag": "", "sign": "原小A的个人站、致力于记录、学习、分享", "feed": "https://blog.lipux.cn/feed/", "status": "" },
    { "name": "陈阿叔", "url": "https://www.rickychen.top/", "tag": "", "sign": "生活喜欢勇敢的人！", "feed": "https://www.rickychen.top/feed", "status": "" },
    { "name": "白菜日记", "url": "https://thecat.top/", "tag": "", "sign": "喜欢就争取，得到就珍惜，错过就忘记。", "feed": "https://thecat.top/index.php/feed/", "status": "" },
    { "name": "纸盒博客", "url": "https://zhebk.cn/", "tag": "", "sign": "我们渺小到不可一世。", "feed": "https://zhebk.cn/feed/", "status": "" },
    { "name": "风记星辰", "url": "https://www.thyuu.com/", "tag": "", "sign": "分享生活·留下感动", "feed": "https://www.thyuu.com/feed", "status": "" },
    { "name": "A博客", "url": "https://aboke.net/", "tag": "", "sign": "一位草根站长创建的笔记博客站点", "feed": "https://aboke.net/feed/", "status": "" },
    { "name": "RawChen Blog", "url": "https://rawchen.com/", "tag": "", "sign": "大道至简 大简至极", "feed": "https://rawchen.com/feed/", "status": "" },
    { "name": "陆之岇", "url": "https://twitter.krait.cn/", "tag": "", "sign": "创造一切未来", "feed": "https://twitter.krait.cn/feed/", "status": "" },
    { "name": "强仔博客", "url": "https://q6q.cc/", "tag": "", "sign": "愿陪你慢慢长大", "feed": "", "status": "" },
    { "name": "Panda的博客", "url": "https://panda.panda-studio.cn/", "tag": "", "sign": "Design a colorful life", "feed": "https://panda.panda-studio.cn/feed/", "status": "" },
    { "name": "叶开楗博客", "url": "https://xn--qpru0x.cn/", "tag": "", "sign": "愿我的时光中有你们的陪伴。", "feed": "https://xn--qpru0x.cn/feed/", "status": "" },
    { "name": "提莫酱のBlog", "url": "https://www.timochan.cn/", "tag": "", "sign": "Let's start learning !", "feed": "", "status": "" },
    { "name": "静かな森", "url": "https://innei.ren/", "tag": "", "sign": "致虚极，守静笃。", "feed": "", "status": "" },
    { "name": "秉松博客", "url": "https://blog.iucky.cn/", "tag": "", "sign": "有秉性正直的松", "feed": "https://blog.iucky.cn/feed/", "status": "" },
    { "name": "冷文学习者", "url": "https://kevinlu98.cn/", "tag": "", "sign": "让崇拜从这里开始，用代码做点好玩的事件，让每一天都变的充实起来", "feed": "https://kevinlu98.cn/feed/", "status": "" },
    { "name": "豆豆", "url": "https://amoshk.top/", "tag": "", "sign": "", "feed": "https://amoshk.top/atom.xml", "status": "" },
    { "name": "团团生活志", "url": "https://t-t.live/", "tag": "", "sign": "爱生活 爱分享", "feed": "https://t-t.live/feed/", "status": "" },
    { "name": "zlprime", "url": "https://www.zlprime.cn/", "tag": "", "sign": "勤思勤学，努力向上", "feed": "https://www.zlprime.cn/feed", "status": "" },
    { "name": "浅小沫的笔记", "url": "https://blog.truimo.com/", "tag": "", "sign": "只要努力活下去，总有一天会笑着回忆", "feed": "https://blog.truimo.com/feed/", "status": "" },
    { "name": "萌博客", "url": "https://moe.blog/", "tag": "", "sign": "萌娜的萌博客", "feed": "https://moe.blog/rss.php", "status": "" },
    { "name": "笋尖尖", "url": "https://www.sunjianjian.com/", "tag": "", "sign": "人们之所以会怀念故乡，是因为心爱的人就在故乡。", "feed": "https://www.sunjianjian.com/feed/", "status": "" },
    { "name": "白菜日记", "url": "https://thecat.top/", "tag": "", "sign": "喜欢就争取，得到就珍惜，错过就忘记。", "feed": "https://thecat.top/index.php/feed/", "status": "" },
    { "name": "呆小萌的博客", "url": "https://www.zhaoyingtian.com/", "tag": "", "sign": "代码编织未来", "feed": "https://www.zhaoyingtian.com/feed/", "status": "" },
    { "name": "胡家小子", "url": "https://www.boyhu.cn/", "tag": "", "sign": "用文字抒写人生", "feed": "https://www.boyhu.cn/feed/", "status": "" },
    { "name": "吾柯", "url": "https://blog.keepke.com/", "tag": "", "sign": "保持思考与理性", "feed": "https://blog.keepke.com/feed", "status": "" },
    { "name": "悠悠吧", "url": "https://www.usuuu.com/", "tag": "", "sign": "记录一个文艺女青年的IT之路", "feed": "", "status": "" },
    { "name": "孤影墨香-小絮个人博客", "url": "https://www.gymxbl.com/", "tag": "", "sign": "海内存知己，天涯若比邻", "feed": "https://www.gymxbl.com/feed/", "status": "" },
    { "name": "peachRL的小站-万亿及秭", "url": "https://wanyijizi.com/", "tag": "生活,杂谈,科研,技术,lammps", "sign": "peachRL就是个普通的网名，博主我就是个普通的桃子，粉嫩嫩毛绒绒那种。", "feed": "https://blog.wanyijizi.com/feed/", "status": "" },
    { "name": "关关和六六 ' blog", "url": "https://www.gmcllp.cn/", "tag": "", "sign": "向世界分享我们的故事", "feed": "https://www.gmcllp.cn/feed/", "status": "" },
    { "name": "梓宸的小屋", "url": "https://zichen.zone/", "tag": "api,typecho", "sign": "一个不太开心的创作者的小博客", "feed": "https://zichen.zone/feed/", "status": "" },
    { "name": "夜将夜", "url": "https://yejiangye.com/", "tag": "生活,记事,记录", "sign": "一丝曙光划破这将夜的夜", "feed": "https://yejiangye.com/feed/", "status": "" },
    { "name": "小俊博客", "url": "https://www.xjisme.com/", "tag": "腾讯云,wordpress,cloudflare,教程,主机测评,typecho,服务器,vps", "sign": "一个从小对网络感兴趣的男孩子", "feed": "https://www.xjisme.com/feed/", "status": "" },
    { "name": "小屁的博客", "url": "https://web.xpblog.cn/", "tag": "typecho,php,技术,生活,记事", "sign": "记录代码世界美好点滴", "feed": "https://web.xpblog.cn/feed/", "status": "" },
    { "name": "不如吃茶去-子舒", "url": "https://imhan.cn/", "tag": "nuxt.js,js,typecho,php,react,vue.js,生活,记事,记录", "sign": "使用 vue + nuxt.js 技术栈构建而成的博客，记录我的文章。", "feed": "https://imhan.cn/feed.xml", "status": "" },
    { "name": "被门夹过的核桃还补脑吗-I am XJJ", "url": "https://xjj.pub/", "tag": "记事,生活,分享,go,c,技术", "sign": "A tech lover from Earth", "feed": "https://xjj.pub/index.xml", "status": "" },
    { "name": "Pan Yixiao’s Website", "url": "https://www.panyixiao.com/", "tag": "php,c,杂记,wordpress,技术", "sign": "技术成就梦想，代码改变世界", "feed": "https://www.panyixiao.com/feed/", "status": "" },
    { "name": "Jason's Blog", "url": "https://blog.lking.icu/", "tag": "", "sign": "既要仰望星空，还需脚踏实地。", "feed": "https://blog.lking.icu/feed", "status": "" },
    { "name": "Masle's Blog - 老哲的小客栈", "url": "https://masle.top/", "tag": "", "sign": "一起向着未来奔跑和冒险吧", "feed": "https://masle.top/atom.xml", "status": "" },
    { "name": "兴哥's Blog", "url": "https://blog.hux6.com/", "tag": "", "sign": "不可结缘,徒增寂寞", "feed": "https://blog.hux6.com/feed/", "status": "" },
    { "name": "Nick的技术博客", "url": "https://nickx.cn/", "tag": "", "sign": "Keeping studying", "feed": "https://nickx.cn/feed/", "status": "" },
    { "name": "ObcbOの窝", "url": "https://obcbo.vercel.app/", "tag": "", "sign": "", "feed": "https://obcbo.vercel.app/atom.xml", "status": "" },
    { "name": "朱先森的笔记", "url": "https://mengxiblog.top", "tag": "", "sign": "为探索而生！", "feed": "", "status": "" },
    { "name": "Kouki-α", "url": "https://kouki.ltd", "tag": "", "sign": "ポケモン ゲットだぜ", "feed": "https://kouki.ltd/atom.xml", "status": "" },
    { "name": "白鸽小屋", "url": "https://www.sccens.net", "tag": "", "sign": "今天，你变得更博学了吗？", "feed": "https://www.sccens.net/feed/", "status": "" },
    { "name": "一朵无名之花", "url": "https://xn--e1t46na.xn--6qq986b3xl/", "tag": "", "sign": "且敬往事一杯酒，愿无岁月可回头。", "feed": "https://xn--e1t46na.xn--6qq986b3xl/feed/", "status": "" },
    { "name": "璃墨的小站", "url": "https://limour.top/", "tag": "", "sign": "一沙一世界，一花一天堂。君掌盛无边，刹那成永恒。", "feed": "https://limour.top/feed/", "status": "" },
    { "name": "瓠樽", "url": "https://blog.dylanwu.space/", "tag": "", "sign": "以瓠為樽而浮乎江湖", "feed": "https://blog.dylanwu.space/feed.xml", "status": "" },
    { "name": "上杉九月的博客", "url": "https://sakurasep.site/", "tag": "", "sign": "上杉九月的博客", "feed": "https://sakurasep.site/atom.xml", "status": "" },
    { "name": "Lanta Zone", "url": "https://lanta.cyou/", "tag": "", "sign": "", "feed": "https://www.lanta.cyou/atom.xml", "status": "" },
    { "name": "青云工作室", "url": "https://qystudio.ltd", "tag": "", "sign": "不因何事去制作 只因兴趣而创造", "feed": "https://qystudio.ltd/atom.xml", "status": "" },
    { "name": "记录生活，精彩一刻", "url": "https://www.ikii.net", "tag": "", "sign": "资源 共享 生活 学习", "feed": "https://www.ikii.net/feed/", "status": "" },
    { "name": "ImCaO's Blog", "url": "https://www.imcao.cn", "tag": "", "sign": "花有重开日，人无再少年。", "feed": "https://www.imcao.cn/atom.xml", "status": "" },
    { "name": "ポ叶 - shutiaoya", "url": "https://www.shutiaoya.com", "tag": "", "sign": "记录一些自己遇到的问题", "feed": "https://www.shutiaoya.com/feed/", "status": "" },
    { "name": "张赛东", "url": "https://zsd.name/", "tag": "", "sign": "既然选择了远方，便只顾风雨兼程", "feed": "https://zsd.name/atom.xml", "status": "" },
    { "name": "arthur", "url": "https://liu527.gitee.io/", "tag": "", "sign": "不知所措，才是人生。", "feed": "", "status": "" },
    { "name": "Wlog", "url": "https://blog.wmza.cn/", "tag": "", "sign": "一个普通人 ", "feed": "https://blog.wmza.cn/atom.xml", "status": "" },
    { "name": "小升博", "url": "https://blog.diz7.com", "tag": "", "sign": "别看今天蹦的欢，小心日后拉清单。", "feed": "https://blog.diz7.com/feed/", "status": "" },
    { "name": "Rosmontis&迷迭香的博客", "url": "https://rosmontis.com/", "tag": "", "sign": "---一个安静的博客,gentlemen's home,挖掘前后端新技术,搜罗高大尚GAL╭(●`∀&#;●)╯╰(●’◡’●)╮", "feed": "", "status": "" },
    { "name": "DoraKika", "url": "https://dorakika.cn/", "tag": "", "sign": "热爱漫无边际，生活自有分寸", "feed": "热爱漫无边际，生活自有分寸", "status": "" },
    { "name": "Bi_Gu's Blog", "url": "https://www.dabigu.xyz/", "tag": "", "sign": "", "feed": "https://www.dabigu.xyz/index.php/feed/", "status": "" },
    { "name": "Barney’s Blog", "url": "https://hugo.bnblogs.cc/", "tag": "", "sign": "All the truth is simple", "feed": "https://hugo.bnblogs.cc/index.xml", "status": "" },
    { "name": "Sky's Blog", "url": "https://www.wanglingyue.com/", "tag": "", "sign": "纵使前方无晴日，任风雨，路迢迢", "feed": "https://www.wanglingyue.com/api/rss", "status": "" },
    { "name": "沉醒凝香", "url": "https://irithys.com/", "tag": "", "sign": "", "feed": "", "status": "" },
    { "name": "啊不都", "url": "https://www.oplog.cn/", "tag": "", "sign": "大道至简，衍化至繁", "feed": "https://www.oplog.cn/atom.xml", "status": "" },
    { "name": "放养平凡", "url": "https://ba2in9a.top", "tag": "", "sign": "我仍相信人间滚烫", "feed": "https://ba2in9a.top/atom.xml", "status": "" }
]